
----------------------------
2020-02-25 00:27:26.294621
----------------------------

E-link ID = 16        MMFE8 = L1P1_IPL        Health = A        Events = 1000        Mean Size = 1999.9        Sdev = 3.161
E-link ID = 2256        MMFE8 = L4P1_HOR        Health = B        Events = 1026        Mean Size = 128.0        Sdev = 0.0
E-link ID = 33        MMFE8 = L1P5_IPL        Health = B        Events = 634        Mean Size = 563.112        Sdev = 33.105
E-link ID = 737        MMFE8 = L2P5_HOR        Health = F        Events = 1        Mean Size = 566.0        Sdev = 0.0
E-link ID = 827        MMFE8 = L1A_INFO        Health = A+        Events = 1000        Mean Size = 28.272        Sdev = 7.121

----------------------------
-----------  END  ----------
----------------------------

