>>> message from 128.141.177.225:46288, size=566
1c 00 00 00 3b 03 00 00 01 14 b9 00 dd 7e 05 02 08 00 00 00 00 00 00 00 dd 7e 05 02 

>>> message from 128.141.177.225:46288, size=566
1c 00 00 00 3b 03 00 00 01 14 b9 00 de 7e 05 02 08 00 00 00 00 00 00 00 de 7e 05 02 

>>> message from 128.141.177.225:46288, size=566
1c 00 00 00 3b 03 00 00 01 14 b9 00 df 7e 05 02 08 00 00 00 00 00 00 00 df 7e 05 02 

>>> message from 128.141.177.225:46288, size=566
1c 00 00 00 3b 03 00 00 01 14 b9 00 e0 7e 05 02 08 00 00 00 00 00 00 00 e0 7e 05 02 

>>> message from 128.141.177.225:46288, size=566
1c 00 00 00 3b 03 00 00 01 14 b9 00 e1 7e 05 02 08 00 00 00 00 00 00 00 e1 7e 05 02 

>>> message from 128.141.177.225:46288, size=566
1c 00 00 00 3b 03 00 00 01 14 b9 00 e2 7e 05 02 08 00 00 00 00 00 00 00 e2 7e 05 02 

>>> message from 128.141.177.225:46288, size=566
1c 00 00 00 3b 03 00 00 01 14 b9 00 e3 7e 05 02 08 00 00 00 00 00 00 00 e3 7e 05 02 

>>> message from 128.141.177.225:46288, size=566
1c 00 00 00 3b 03 00 00 01 14 b9 00 52 80 05 02 08 00 00 00 00 00 00 00 52 80 05 02 

>>> message from 128.141.177.225:46288, size=566
1c 00 00 00 3b 03 00 00 01 14 b9 00 53 80 05 02 08 00 00 00 00 00 00 00 53 80 05 02 

>>> message from 128.141.177.225:46288, size=566
1c 00 00 00 3b 03 00 00 01 14 b9 00 54 80 05 02 08 00 00 00 00 00 00 00 54 80 05 02 

>>> message from 128.141.177.225:46288, size=566
1c 00 00 00 3b 03 00 00 01 14 b9 00 55 80 05 02 08 00 00 00 00 00 00 00 55 80 05 02 

>>> message from 128.141.177.225:46288, size=231
1c 00 00 00 3b 03 00 00 01 14 b9 00 56 80 05 02 08 00 00 00 00 00 00 00 56 80 05 02 

>>> message from 128.141.177.225:46288, size=566
1c 00 00 00 3b 03 00 00 01 14 b9 00 57 80 05 02 08 00 00 00 00 00 00 00 57 80 05 02 

>>> message from 128.141.177.225:46288, size=566
1c 00 00 00 3b 03 00 00 01 14 b9 00 58 80 05 02 08 00 00 00 00 00 00 00 58 80 05 02 

>>> message from 128.141.177.225:46288, size=123
1c 00 00 00 3b 03 00 00 01 14 b9 00 59 80 05 02 08 00 00 00 00 00 00 00 59 80 05 02 

>>> message from 128.141.177.225:46288, size=566
1c 00 00 00 3b 03 00 00 01 14 b9 00 5a 80 05 02 08 00 00 00 00 00 00 00 5a 80 05 02 

>>> message from 128.141.177.225:46288, size=566
1c 00 00 00 3b 03 00 00 01 14 b9 00 5b 80 05 02 08 00 00 00 00 00 00 00 5b 80 05 02 

>>> message from 128.141.177.225:46288, size=566
1c 00 00 00 3b 03 00 00 01 14 b9 00 5c 80 05 02 08 00 00 00 00 00 00 00 5c 80 05 02 

>>> message from 128.141.177.225:46288, size=566
1c 00 00 00 3b 03 00 00 01 14 b9 00 5d 80 05 02 08 00 00 00 00 00 00 00 5d 80 05 02 

>>> message from 128.141.177.225:46288, size=566
1c 00 00 00 3b 03 00 00 01 14 b9 00 5e 80 05 02 08 00 00 00 00 00 00 00 5e 80 05 02 

>>> message from 128.141.177.225:46288, size=566
1c 00 00 00 3b 03 00 00 01 14 b9 00 5f 80 05 02 08 00 00 00 00 00 00 00 5f 80 05 02 

>>> message from 128.141.177.225:46288, size=566
1c 00 00 00 3b 03 00 00 01 14 b9 00 60 80 05 02 08 00 00 00 00 00 00 00 60 80 05 02 

>>> message from 128.141.177.225:46288, size=566
1c 00 00 00 3b 03 00 00 01 14 b9 00 61 80 05 02 08 00 00 00 00 00 00 00 61 80 05 02 

>>> message from 128.141.177.225:46288, size=566
1c 00 00 00 3b 03 00 00 01 14 b9 00 62 80 05 02 08 00 00 00 00 00 00 00 62 80 05 02 

>>> message from 128.141.177.225:46288, size=566
1c 00 00 00 3b 03 00 00 01 14 b9 00 63 80 05 02 08 00 00 00 00 00 00 00 63 80 05 02 

>>> message from 128.141.177.225:46288, size=566
1c 00 00 00 3b 03 00 00 01 14 b9 00 64 80 05 02 08 00 00 00 00 00 00 00 64 80 05 02 

>>> message from 128.141.177.225:46288, size=566
1c 00 00 00 3b 03 00 00 01 14 b9 00 65 80 05 02 08 00 00 00 00 00 00 00 65 80 05 02 

>>> message from 128.141.177.225:46288, size=566
1c 00 00 00 3b 03 00 00 01 14 b9 00 66 80 05 02 08 00 00 00 00 00 00 00 66 80 05 02 

>>> message from 128.141.177.225:46288, size=566
1c 00 00 00 3b 03 00 00 01 14 b9 00 67 80 05 02 08 00 00 00 00 00 00 00 67 80 05 02 

>>> message from 128.141.177.225:46288, size=566
1c 00 00 00 3b 03 00 00 01 14 b9 00 68 80 05 02 08 00 00 00 00 00 00 00 68 80 05 02 

>>> message from 128.141.177.225:46288, size=566
1c 00 00 00 3b 03 00 00 01 14 b9 00 69 80 05 02 08 00 00 00 00 00 00 00 69 80 05 02 

>>> message from 128.141.177.225:46288, size=566
1c 00 00 00 3b 03 00 00 01 14 b9 00 6a 80 05 02 08 00 00 00 00 00 00 00 6a 80 05 02 

>>> message from 128.141.177.225:46288, size=566
1c 00 00 00 3b 03 00 00 01 14 b9 00 6b 80 05 02 08 00 00 00 00 00 00 00 6b 80 05 02 

>>> message from 128.141.177.225:46288, size=566
1c 00 00 00 3b 03 00 00 01 14 b9 00 6c 80 05 02 08 00 00 00 00 00 00 00 6c 80 05 02 

>>> message from 128.141.177.225:46288, size=566
1c 00 00 00 3b 03 00 00 01 14 b9 00 6d 80 05 02 08 00 00 00 00 00 00 00 6d 80 05 02 

>>> message from 128.141.177.225:46288, size=566
1c 00 00 00 3b 03 00 00 01 14 b9 00 6e 80 05 02 08 00 00 00 00 00 00 00 6e 80 05 02 

>>> message from 128.141.177.225:46288, size=566
1c 00 00 00 3b 03 00 00 01 14 b9 00 6f 80 05 02 08 00 00 00 00 00 00 00 6f 80 05 02 

>>> message from 128.141.177.225:46288, size=566
1c 00 00 00 3b 03 00 00 01 14 b9 00 70 80 05 02 08 00 00 00 00 00 00 00 70 80 05 02 

>>> message from 128.141.177.225:46288, size=566
1c 00 00 00 3b 03 00 00 01 14 b9 00 71 80 05 02 08 00 00 00 00 00 00 00 71 80 05 02 

>>> message from 128.141.177.225:46288, size=566
1c 00 00 00 3b 03 00 00 01 14 b9 00 72 80 05 02 08 00 00 00 00 00 00 00 72 80 05 02 

>>> message from 128.141.177.225:46288, size=566
1c 00 00 00 3b 03 00 00 01 14 b9 00 73 80 05 02 08 00 00 00 00 00 00 00 73 80 05 02 

>>> message from 128.141.177.225:46288, size=566
1c 00 00 00 3b 03 00 00 01 14 b9 00 74 80 05 02 08 00 00 00 00 00 00 00 74 80 05 02 

>>> message from 128.141.177.225:46288, size=566
1c 00 00 00 3b 03 00 00 01 14 b9 00 75 80 05 02 08 00 00 00 00 00 00 00 75 80 05 02 

>>> message from 128.141.177.225:46288, size=566
1c 00 00 00 3b 03 00 00 01 14 b9 00 76 80 05 02 08 00 00 00 00 00 00 00 76 80 05 02 

>>> message from 128.141.177.225:46288, size=566
1c 00 00 00 3b 03 00 00 01 14 b9 00 77 80 05 02 08 00 00 00 00 00 00 00 77 80 05 02 

>>> message from 128.141.177.225:46288, size=566
1c 00 00 00 3b 03 00 00 01 14 b9 00 78 80 05 02 08 00 00 00 00 00 00 00 78 80 05 02 

>>> message from 128.141.177.225:46288, size=566
1c 00 00 00 3b 03 00 00 01 14 b9 00 79 80 05 02 08 00 00 00 00 00 00 00 79 80 05 02 

>>> message from 128.141.177.225:46288, size=566
1c 00 00 00 3b 03 00 00 01 14 b9 00 7a 80 05 02 08 00 00 00 00 00 00 00 7a 80 05 02 

>>> message from 128.141.177.225:46288, size=566
1c 00 00 00 3b 03 00 00 01 14 b9 00 7b 80 05 02 08 00 00 00 00 00 00 00 7b 80 05 02 

>>> message from 128.141.177.225:46288, size=566
1c 00 00 00 3b 03 00 00 01 14 b9 00 7c 80 05 02 08 00 00 00 00 00 00 00 7c 80 05 02 

>>> message from 128.141.177.225:46288, size=566
1c 00 00 00 3b 03 00 00 01 14 b9 00 7d 80 05 02 08 00 00 00 00 00 00 00 7d 80 05 02 

>>> message from 128.141.177.225:46288, size=566
1c 00 00 00 3b 03 00 00 01 14 b9 00 7e 80 05 02 08 00 00 00 00 00 00 00 7e 80 05 02 

>>> message from 128.141.177.225:46288, size=566
1c 00 00 00 3b 03 00 00 01 14 b9 00 7f 80 05 02 08 00 00 00 00 00 00 00 7f 80 05 02 

>>> message from 128.141.177.225:46288, size=566
1c 00 00 00 3b 03 00 00 01 14 b9 00 80 80 05 02 08 00 00 00 00 00 00 00 80 80 05 02 

>>> message from 128.141.177.225:46288, size=566
1c 00 00 00 3b 03 00 00 01 14 b9 00 81 80 05 02 08 00 00 00 00 00 00 00 81 80 05 02 

>>> message from 128.141.177.225:46288, size=566
1c 00 00 00 3b 03 00 00 01 14 b9 00 82 80 05 02 08 00 00 00 00 00 00 00 82 80 05 02 

>>> message from 128.141.177.225:46288, size=566
1c 00 00 00 3b 03 00 00 01 14 b9 00 83 80 05 02 08 00 00 00 00 00 00 00 83 80 05 02 

>>> message from 128.141.177.225:46288, size=566
1c 00 00 00 3b 03 00 00 01 14 b9 00 84 80 05 02 08 00 00 00 00 00 00 00 84 80 05 02 

>>> message from 128.141.177.225:46288, size=566
1c 00 00 00 3b 03 00 00 01 14 b9 00 85 80 05 02 08 00 00 00 00 00 00 00 85 80 05 02 

>>> message from 128.141.177.225:46288, size=566
1c 00 00 00 3b 03 00 00 01 14 b9 00 86 80 05 02 08 00 00 00 00 00 00 00 86 80 05 02 

>>> message from 128.141.177.225:46288, size=566
1c 00 00 00 3b 03 00 00 01 14 b9 00 87 80 05 02 08 00 00 00 00 00 00 00 87 80 05 02 

>>> message from 128.141.177.225:46288, size=566
1c 00 00 00 3b 03 00 00 01 14 b9 00 88 80 05 02 08 00 00 00 00 00 00 00 88 80 05 02 

>>> message from 128.141.177.225:46288, size=566
1c 00 00 00 3b 03 00 00 01 14 b9 00 89 80 05 02 08 00 00 00 00 00 00 00 89 80 05 02 

>>> message from 128.141.177.225:46288, size=566
1c 00 00 00 3b 03 00 00 01 14 b9 00 8a 80 05 02 08 00 00 00 00 00 00 00 8a 80 05 02 

>>> message from 128.141.177.225:46288, size=566
1c 00 00 00 3b 03 00 00 01 14 b9 00 8b 80 05 02 08 00 00 00 00 00 00 00 8b 80 05 02 

>>> message from 128.141.177.225:46288, size=566
1c 00 00 00 3b 03 00 00 01 14 b9 00 8c 80 05 02 08 00 00 00 00 00 00 00 8c 80 05 02 

>>> message from 128.141.177.225:46288, size=566
1c 00 00 00 3b 03 00 00 01 14 b9 00 8d 80 05 02 08 00 00 00 00 00 00 00 8d 80 05 02 

>>> message from 128.141.177.225:46288, size=566
1c 00 00 00 3b 03 00 00 01 14 b9 00 8e 80 05 02 08 00 00 00 00 00 00 00 8e 80 05 02 

>>> message from 128.141.177.225:46288, size=566
1c 00 00 00 3b 03 00 00 01 14 b9 00 8f 80 05 02 08 00 00 00 00 00 00 00 8f 80 05 02 

>>> message from 128.141.177.225:46288, size=566
1c 00 00 00 3b 03 00 00 01 14 b9 00 90 80 05 02 08 00 00 00 00 00 00 00 90 80 05 02 

>>> message from 128.141.177.225:46288, size=566
1c 00 00 00 3b 03 00 00 01 14 b9 00 91 80 05 02 08 00 00 00 00 00 00 00 91 80 05 02 

>>> message from 128.141.177.225:46288, size=566
1c 00 00 00 3b 03 00 00 01 14 b9 00 92 80 05 02 08 00 00 00 00 00 00 00 92 80 05 02 

>>> message from 128.141.177.225:46288, size=566
1c 00 00 00 3b 03 00 00 01 14 b9 00 93 80 05 02 08 00 00 00 00 00 00 00 93 80 05 02 

>>> message from 128.141.177.225:46288, size=566
1c 00 00 00 3b 03 00 00 01 14 b9 00 94 80 05 02 08 00 00 00 00 00 00 00 94 80 05 02 

>>> message from 128.141.177.225:46288, size=566
1c 00 00 00 3b 03 00 00 01 14 b9 00 95 80 05 02 08 00 00 00 00 00 00 00 95 80 05 02 

>>> message from 128.141.177.225:46288, size=566
1c 00 00 00 3b 03 00 00 01 14 b9 00 96 80 05 02 08 00 00 00 00 00 00 00 96 80 05 02 

>>> message from 128.141.177.225:46288, size=566
1c 00 00 00 3b 03 00 00 01 14 b9 00 97 80 05 02 08 00 00 00 00 00 00 00 97 80 05 02 

>>> message from 128.141.177.225:46288, size=566
1c 00 00 00 3b 03 00 00 01 14 b9 00 98 80 05 02 08 00 00 00 00 00 00 00 98 80 05 02 

>>> message from 128.141.177.225:46288, size=566
1c 00 00 00 3b 03 00 00 01 14 b9 00 99 80 05 02 08 00 00 00 00 00 00 00 99 80 05 02 

>>> message from 128.141.177.225:46288, size=566
1c 00 00 00 3b 03 00 00 01 14 b9 00 9a 80 05 02 08 00 00 00 00 00 00 00 9a 80 05 02 

>>> message from 128.141.177.225:46288, size=566
1c 00 00 00 3b 03 00 00 01 14 b9 00 9b 80 05 02 08 00 00 00 00 00 00 00 9b 80 05 02 

>>> message from 128.141.177.225:46288, size=566
1c 00 00 00 3b 03 00 00 01 14 b9 00 9c 80 05 02 08 00 00 00 00 00 00 00 9c 80 05 02 

>>> message from 128.141.177.225:46288, size=566
1c 00 00 00 3b 03 00 00 01 14 b9 00 9d 80 05 02 08 00 00 00 00 00 00 00 9d 80 05 02 

>>> message from 128.141.177.225:46288, size=566
1c 00 00 00 3b 03 00 00 01 14 b9 00 9e 80 05 02 08 00 00 00 00 00 00 00 9e 80 05 02 

>>> message from 128.141.177.225:46288, size=566
1c 00 00 00 3b 03 00 00 01 14 b9 00 9f 80 05 02 08 00 00 00 00 00 00 00 9f 80 05 02 

>>> message from 128.141.177.225:46288, size=566
1c 00 00 00 3b 03 00 00 01 14 b9 00 a0 80 05 02 08 00 00 00 00 00 00 00 a0 80 05 02 

>>> message from 128.141.177.225:46288, size=566
1c 00 00 00 3b 03 00 00 01 14 b9 00 a1 80 05 02 08 00 00 00 00 00 00 00 a1 80 05 02 

>>> message from 128.141.177.225:46288, size=111
1c 00 00 00 3b 03 00 00 01 14 b9 00 a2 80 05 02 08 00 00 00 00 00 00 00 a2 80 05 02 

>>> message from 128.141.177.225:46288, size=566
1c 00 00 00 3b 03 00 00 01 14 b9 00 a3 80 05 02 08 00 00 00 00 00 00 00 a3 80 05 02 

>>> message from 128.141.177.225:46288, size=566
1c 00 00 00 3b 03 00 00 01 14 b9 00 a4 80 05 02 08 00 00 00 00 00 00 00 a4 80 05 02 

>>> message from 128.141.177.225:46288, size=566
1c 00 00 00 3b 03 00 00 01 14 b9 00 a5 80 05 02 08 00 00 00 00 00 00 00 a5 80 05 02 

>>> message from 128.141.177.225:46288, size=566
1c 00 00 00 3b 03 00 00 01 14 b9 00 a6 80 05 02 08 00 00 00 00 00 00 00 a6 80 05 02 

>>> message from 128.141.177.225:46288, size=566
1c 00 00 00 3b 03 00 00 01 14 b9 00 a7 80 05 02 08 00 00 00 00 00 00 00 a7 80 05 02 

>>> message from 128.141.177.225:46288, size=566
1c 00 00 00 3b 03 00 00 01 14 b9 00 a8 80 05 02 08 00 00 00 00 00 00 00 a8 80 05 02 

>>> message from 128.141.177.225:46288, size=566
1c 00 00 00 3b 03 00 00 01 14 b9 00 a9 80 05 02 08 00 00 00 00 00 00 00 a9 80 05 02 

>>> message from 128.141.177.225:46288, size=566
1c 00 00 00 3b 03 00 00 01 14 b9 00 aa 80 05 02 08 00 00 00 00 00 00 00 aa 80 05 02 

>>> message from 128.141.177.225:46288, size=566
1c 00 00 00 3b 03 00 00 01 14 b9 00 ab 80 05 02 08 00 00 00 00 00 00 00 ab 80 05 02 

>>> message from 128.141.177.225:46288, size=566
1c 00 00 00 3b 03 00 00 01 14 b9 00 ac 80 05 02 08 00 00 00 00 00 00 00 ac 80 05 02 

>>> message from 128.141.177.225:46288, size=566
1c 00 00 00 3b 03 00 00 01 14 b9 00 ad 80 05 02 08 00 00 00 00 00 00 00 ad 80 05 02 

>>> message from 128.141.177.225:46288, size=566
1c 00 00 00 3b 03 00 00 01 14 b9 00 ae 80 05 02 08 00 00 00 00 00 00 00 ae 80 05 02 

>>> message from 128.141.177.225:46288, size=566
1c 00 00 00 3b 03 00 00 01 14 b9 00 af 80 05 02 08 00 00 00 00 00 00 00 af 80 05 02 

>>> message from 128.141.177.225:46288, size=566
1c 00 00 00 3b 03 00 00 01 14 b9 00 b0 80 05 02 08 00 00 00 00 00 00 00 b0 80 05 02 

>>> message from 128.141.177.225:46288, size=566
1c 00 00 00 3b 03 00 00 01 14 b9 00 b1 80 05 02 08 00 00 00 00 00 00 00 b1 80 05 02 

>>> message from 128.141.177.225:46288, size=566
1c 00 00 00 3b 03 00 00 01 14 b9 00 b2 80 05 02 08 00 00 00 00 00 00 00 b2 80 05 02 

>>> message from 128.141.177.225:46288, size=566
1c 00 00 00 3b 03 00 00 01 14 b9 00 b3 80 05 02 08 00 00 00 00 00 00 00 b3 80 05 02 

>>> message from 128.141.177.225:46288, size=566
1c 00 00 00 3b 03 00 00 01 14 b9 00 b4 80 05 02 08 00 00 00 00 00 00 00 b4 80 05 02 

>>> message from 128.141.177.225:46288, size=566
1c 00 00 00 3b 03 00 00 01 14 b9 00 b5 80 05 02 08 00 00 00 00 00 00 00 b5 80 05 02 

>>> message from 128.141.177.225:46288, size=566
1c 00 00 00 3b 03 00 00 01 14 b9 00 b6 80 05 02 08 00 00 00 00 00 00 00 b6 80 05 02 

>>> message from 128.141.177.225:46288, size=566
1c 00 00 00 3b 03 00 00 01 14 b9 00 b7 80 05 02 08 00 00 00 00 00 00 00 b7 80 05 02 

>>> message from 128.141.177.225:46288, size=566
1c 00 00 00 3b 03 00 00 01 14 b9 00 b8 80 05 02 08 00 00 00 00 00 00 00 b8 80 05 02 

>>> message from 128.141.177.225:46288, size=566
1c 00 00 00 3b 03 00 00 01 14 b9 00 b9 80 05 02 08 00 00 00 00 00 00 00 b9 80 05 02 

>>> message from 128.141.177.225:46288, size=566
1c 00 00 00 3b 03 00 00 01 14 b9 00 ba 80 05 02 08 00 00 00 00 00 00 00 ba 80 05 02 

>>> message from 128.141.177.225:46288, size=566
1c 00 00 00 3b 03 00 00 01 14 b9 00 bb 80 05 02 08 00 00 00 00 00 00 00 bb 80 05 02 

>>> message from 128.141.177.225:46288, size=566
1c 00 00 00 3b 03 00 00 01 14 b9 00 bc 80 05 02 08 00 00 00 00 00 00 00 bc 80 05 02 

>>> message from 128.141.177.225:46288, size=566
1c 00 00 00 3b 03 00 00 01 14 b9 00 bd 80 05 02 08 00 00 00 00 00 00 00 bd 80 05 02 

>>> message from 128.141.177.225:46288, size=566
1c 00 00 00 3b 03 00 00 01 14 b9 00 be 80 05 02 08 00 00 00 00 00 00 00 be 80 05 02 

>>> message from 128.141.177.225:46288, size=566
1c 00 00 00 3b 03 00 00 01 14 b9 00 bf 80 05 02 08 00 00 00 00 00 00 00 bf 80 05 02 

>>> message from 128.141.177.225:46288, size=566
1c 00 00 00 3b 03 00 00 01 14 b9 00 c0 80 05 02 08 00 00 00 00 00 00 00 c0 80 05 02 

>>> message from 128.141.177.225:46288, size=566
1c 00 00 00 3b 03 00 00 01 14 b9 00 c1 80 05 02 08 00 00 00 00 00 00 00 c1 80 05 02 

>>> message from 128.141.177.225:46288, size=566
1c 00 00 00 3b 03 00 00 01 14 b9 00 c2 80 05 02 08 00 00 00 00 00 00 00 c2 80 05 02 

>>> message from 128.141.177.225:46288, size=566
1c 00 00 00 3b 03 00 00 01 14 b9 00 c3 80 05 02 08 00 00 00 00 00 00 00 c3 80 05 02 

>>> message from 128.141.177.225:46288, size=566
1c 00 00 00 3b 03 00 00 01 14 b9 00 c4 80 05 02 08 00 00 00 00 00 00 00 c4 80 05 02 

>>> message from 128.141.177.225:46288, size=566
1c 00 00 00 3b 03 00 00 01 14 b9 00 c5 80 05 02 08 00 00 00 00 00 00 00 c5 80 05 02 

>>> message from 128.141.177.225:46288, size=566
1c 00 00 00 3b 03 00 00 01 14 b9 00 c6 80 05 02 08 00 00 00 00 00 00 00 c6 80 05 02 

>>> message from 128.141.177.225:46288, size=566
1c 00 00 00 3b 03 00 00 01 14 b9 00 c7 80 05 02 08 00 00 00 00 00 00 00 c7 80 05 02 

>>> message from 128.141.177.225:46288, size=566
1c 00 00 00 3b 03 00 00 01 14 b9 00 c8 80 05 02 08 00 00 00 00 00 00 00 c8 80 05 02 

>>> message from 128.141.177.225:46288, size=566
1c 00 00 00 3b 03 00 00 01 14 b9 00 c9 80 05 02 08 00 00 00 00 00 00 00 c9 80 05 02 

>>> message from 128.141.177.225:46288, size=566
1c 00 00 00 3b 03 00 00 01 14 b9 00 ca 80 05 02 08 00 00 00 00 00 00 00 ca 80 05 02 

>>> message from 128.141.177.225:46288, size=566
1c 00 00 00 3b 03 00 00 01 14 b9 00 cb 80 05 02 08 00 00 00 00 00 00 00 cb 80 05 02 

>>> message from 128.141.177.225:46288, size=566
1c 00 00 00 3b 03 00 00 01 14 b9 00 cc 80 05 02 08 00 00 00 00 00 00 00 cc 80 05 02 

>>> message from 128.141.177.225:46288, size=566
1c 00 00 00 3b 03 00 00 01 14 b9 00 cd 80 05 02 08 00 00 00 00 00 00 00 cd 80 05 02 

>>> message from 128.141.177.225:46288, size=566
1c 00 00 00 3b 03 00 00 01 14 b9 00 ce 80 05 02 08 00 00 00 00 00 00 00 ce 80 05 02 

>>> message from 128.141.177.225:46288, size=566
1c 00 00 00 3b 03 00 00 01 14 b9 00 cf 80 05 02 08 00 00 00 00 00 00 00 cf 80 05 02 

>>> message from 128.141.177.225:46288, size=566
1c 00 00 00 3b 03 00 00 01 14 b9 00 d0 80 05 02 08 00 00 00 00 00 00 00 d0 80 05 02 

>>> message from 128.141.177.225:46288, size=566
1c 00 00 00 3b 03 00 00 01 14 b9 00 d1 80 05 02 08 00 00 00 00 00 00 00 d1 80 05 02 

>>> message from 128.141.177.225:46288, size=566
1c 00 00 00 3b 03 00 00 01 14 b9 00 d2 80 05 02 08 00 00 00 00 00 00 00 d2 80 05 02 

>>> message from 128.141.177.225:46288, size=566
1c 00 00 00 3b 03 00 00 01 14 b9 00 d3 80 05 02 08 00 00 00 00 00 00 00 d3 80 05 02 

>>> message from 128.141.177.225:46288, size=566
1c 00 00 00 3b 03 00 00 01 14 b9 00 d4 80 05 02 08 00 00 00 00 00 00 00 d4 80 05 02 

>>> message from 128.141.177.225:46288, size=566
1c 00 00 00 3b 03 00 00 01 14 b9 00 d5 80 05 02 08 00 00 00 00 00 00 00 d5 80 05 02 

>>> message from 128.141.177.225:46288, size=213
1c 00 00 00 3b 03 00 00 01 14 b9 00 d6 80 05 02 08 00 00 00 00 00 00 00 d6 80 05 02 

>>> message from 128.141.177.225:46288, size=566
1c 00 00 00 3b 03 00 00 01 14 b9 00 d7 80 05 02 08 00 00 00 00 00 00 00 d7 80 05 02 

>>> message from 128.141.177.225:46288, size=566
1c 00 00 00 3b 03 00 00 01 14 b9 00 d8 80 05 02 08 00 00 00 00 00 00 00 d8 80 05 02 

>>> message from 128.141.177.225:46288, size=566
1c 00 00 00 3b 03 00 00 01 14 b9 00 d9 80 05 02 08 00 00 00 00 00 00 00 d9 80 05 02 

>>> message from 128.141.177.225:46288, size=566
1c 00 00 00 3b 03 00 00 01 14 b9 00 da 80 05 02 08 00 00 00 00 00 00 00 da 80 05 02 

>>> message from 128.141.177.225:46288, size=566
1c 00 00 00 3b 03 00 00 01 14 b9 00 db 80 05 02 08 00 00 00 00 00 00 00 db 80 05 02 

>>> message from 128.141.177.225:46288, size=566
1c 00 00 00 3b 03 00 00 01 14 b9 00 dc 80 05 02 08 00 00 00 00 00 00 00 dc 80 05 02 

>>> message from 128.141.177.225:46288, size=566
1c 00 00 00 3b 03 00 00 01 14 b9 00 dd 80 05 02 08 00 00 00 00 00 00 00 dd 80 05 02 

>>> message from 128.141.177.225:46288, size=566
1c 00 00 00 3b 03 00 00 01 14 b9 00 de 80 05 02 08 00 00 00 00 00 00 00 de 80 05 02 

>>> message from 128.141.177.225:46288, size=566
1c 00 00 00 3b 03 00 00 01 14 b9 00 df 80 05 02 08 00 00 00 00 00 00 00 df 80 05 02 

>>> message from 128.141.177.225:46288, size=566
1c 00 00 00 3b 03 00 00 01 14 b9 00 e0 80 05 02 08 00 00 00 00 00 00 00 e0 80 05 02 

>>> message from 128.141.177.225:46288, size=566
1c 00 00 00 3b 03 00 00 01 14 b9 00 e1 80 05 02 08 00 00 00 00 00 00 00 e1 80 05 02 

>>> message from 128.141.177.225:46288, size=566
1c 00 00 00 3b 03 00 00 01 14 b9 00 e2 80 05 02 08 00 00 00 00 00 00 00 e2 80 05 02 

>>> message from 128.141.177.225:46288, size=566
1c 00 00 00 3b 03 00 00 01 14 b9 00 e3 80 05 02 08 00 00 00 00 00 00 00 e3 80 05 02 

>>> message from 128.141.177.225:46288, size=566
1c 00 00 00 3b 03 00 00 01 14 b9 00 e4 80 05 02 08 00 00 00 00 00 00 00 e4 80 05 02 

>>> message from 128.141.177.225:46288, size=566
1c 00 00 00 3b 03 00 00 01 14 b9 00 e5 80 05 02 08 00 00 00 00 00 00 00 e5 80 05 02 

>>> message from 128.141.177.225:46288, size=566
1c 00 00 00 3b 03 00 00 01 14 b9 00 e6 80 05 02 08 00 00 00 00 00 00 00 e6 80 05 02 

>>> message from 128.141.177.225:46288, size=566
1c 00 00 00 3b 03 00 00 01 14 b9 00 e7 80 05 02 08 00 00 00 00 00 00 00 e7 80 05 02 

>>> message from 128.141.177.225:46288, size=566
1c 00 00 00 3b 03 00 00 01 14 b9 00 e8 80 05 02 08 00 00 00 00 00 00 00 e8 80 05 02 

>>> message from 128.141.177.225:46288, size=566
1c 00 00 00 3b 03 00 00 01 14 b9 00 e9 80 05 02 08 00 00 00 00 00 00 00 e9 80 05 02 

>>> message from 128.141.177.225:46288, size=566
1c 00 00 00 3b 03 00 00 01 14 b9 00 ea 80 05 02 08 00 00 00 00 00 00 00 ea 80 05 02 

>>> message from 128.141.177.225:46288, size=566
1c 00 00 00 3b 03 00 00 01 14 b9 00 eb 80 05 02 08 00 00 00 00 00 00 00 eb 80 05 02 

>>> message from 128.141.177.225:46288, size=566
1c 00 00 00 3b 03 00 00 01 14 b9 00 ec 80 05 02 08 00 00 00 00 00 00 00 ec 80 05 02 

>>> message from 128.141.177.225:46288, size=566
1c 00 00 00 3b 03 00 00 01 14 b9 00 ed 80 05 02 08 00 00 00 00 00 00 00 ed 80 05 02 

>>> message from 128.141.177.225:46288, size=566
1c 00 00 00 3b 03 00 00 01 14 b9 00 ee 80 05 02 08 00 00 00 00 00 00 00 ee 80 05 02 

>>> message from 128.141.177.225:46288, size=566
1c 00 00 00 3b 03 00 00 01 14 b9 00 ef 80 05 02 08 00 00 00 00 00 00 00 ef 80 05 02 

>>> message from 128.141.177.225:46288, size=566
1c 00 00 00 3b 03 00 00 01 14 b9 00 f0 80 05 02 08 00 00 00 00 00 00 00 f0 80 05 02 

>>> message from 128.141.177.225:46288, size=566
1c 00 00 00 3b 03 00 00 01 14 b9 00 f1 80 05 02 08 00 00 00 00 00 00 00 f1 80 05 02 

>>> message from 128.141.177.225:46288, size=566
1c 00 00 00 3b 03 00 00 01 14 b9 00 f2 80 05 02 08 00 00 00 00 00 00 00 f2 80 05 02 

>>> message from 128.141.177.225:46288, size=566
1c 00 00 00 3b 03 00 00 01 14 b9 00 f3 80 05 02 08 00 00 00 00 00 00 00 f3 80 05 02 

>>> message from 128.141.177.225:46288, size=566
1c 00 00 00 3b 03 00 00 01 14 b9 00 f4 80 05 02 08 00 00 00 00 00 00 00 f4 80 05 02 

>>> message from 128.141.177.225:46288, size=566
1c 00 00 00 3b 03 00 00 01 14 b9 00 f5 80 05 02 08 00 00 00 00 00 00 00 f5 80 05 02 

>>> message from 128.141.177.225:46288, size=566
1c 00 00 00 3b 03 00 00 01 14 b9 00 f6 80 05 02 08 00 00 00 00 00 00 00 f6 80 05 02 

>>> message from 128.141.177.225:46288, size=566
1c 00 00 00 3b 03 00 00 01 14 b9 00 f7 80 05 02 08 00 00 00 00 00 00 00 f7 80 05 02 

>>> message from 128.141.177.225:46288, size=566
1c 00 00 00 3b 03 00 00 01 14 b9 00 f8 80 05 02 08 00 00 00 00 00 00 00 f8 80 05 02 

>>> message from 128.141.177.225:46288, size=566
1c 00 00 00 3b 03 00 00 01 14 b9 00 f9 80 05 02 08 00 00 00 00 00 00 00 f9 80 05 02 

>>> message from 128.141.177.225:46288, size=566
1c 00 00 00 3b 03 00 00 01 14 b9 00 fa 80 05 02 08 00 00 00 00 00 00 00 fa 80 05 02 

>>> message from 128.141.177.225:46288, size=566
1c 00 00 00 3b 03 00 00 01 14 b9 00 fb 80 05 02 08 00 00 00 00 00 00 00 fb 80 05 02 

>>> message from 128.141.177.225:46288, size=566
1c 00 00 00 3b 03 00 00 01 14 b9 00 fc 80 05 02 08 00 00 00 00 00 00 00 fc 80 05 02 

>>> message from 128.141.177.225:46288, size=566
1c 00 00 00 3b 03 00 00 01 14 b9 00 fd 80 05 02 08 00 00 00 00 00 00 00 fd 80 05 02 

>>> message from 128.141.177.225:46288, size=566
1c 00 00 00 3b 03 00 00 01 14 b9 00 fe 80 05 02 08 00 00 00 00 00 00 00 fe 80 05 02 

>>> message from 128.141.177.225:46288, size=566
1c 00 00 00 3b 03 00 00 01 14 b9 00 ff 80 05 02 08 00 00 00 00 00 00 00 ff 80 05 02 

>>> message from 128.141.177.225:46288, size=566
1c 00 00 00 3b 03 00 00 01 14 b9 00 00 81 05 02 08 00 00 00 00 00 00 00 00 81 05 02 

>>> message from 128.141.177.225:46288, size=566
1c 00 00 00 3b 03 00 00 01 14 b9 00 01 81 05 02 08 00 00 00 00 00 00 00 01 81 05 02 

>>> message from 128.141.177.225:46288, size=566
1c 00 00 00 3b 03 00 00 01 14 b9 00 02 81 05 02 08 00 00 00 00 00 00 00 02 81 05 02 

>>> message from 128.141.177.225:46288, size=566
1c 00 00 00 3b 03 00 00 01 14 b9 00 03 81 05 02 08 00 00 00 00 00 00 00 03 81 05 02 

>>> message from 128.141.177.225:46288, size=566
1c 00 00 00 3b 03 00 00 01 14 b9 00 04 81 05 02 08 00 00 00 00 00 00 00 04 81 05 02 

>>> message from 128.141.177.225:46288, size=566
1c 00 00 00 3b 03 00 00 01 14 b9 00 05 81 05 02 08 00 00 00 00 00 00 00 05 81 05 02 

>>> message from 128.141.177.225:46288, size=566
1c 00 00 00 3b 03 00 00 01 14 b9 00 06 81 05 02 08 00 00 00 00 00 00 00 06 81 05 02 

>>> message from 128.141.177.225:46288, size=566
1c 00 00 00 3b 03 00 00 01 14 b9 00 07 81 05 02 08 00 00 00 00 00 00 00 07 81 05 02 

>>> message from 128.141.177.225:46288, size=566
1c 00 00 00 3b 03 00 00 01 14 b9 00 08 81 05 02 08 00 00 00 00 00 00 00 08 81 05 02 

>>> message from 128.141.177.225:46288, size=566
1c 00 00 00 3b 03 00 00 01 14 b9 00 09 81 05 02 08 00 00 00 00 00 00 00 09 81 05 02 

>>> message from 128.141.177.225:46288, size=566
1c 00 00 00 3b 03 00 00 01 14 b9 00 0a 81 05 02 08 00 00 00 00 00 00 00 0a 81 05 02 

>>> message from 128.141.177.225:46288, size=566
1c 00 00 00 3b 03 00 00 01 14 b9 00 0b 81 05 02 08 00 00 00 00 00 00 00 0b 81 05 02 

>>> message from 128.141.177.225:46288, size=566
1c 00 00 00 3b 03 00 00 01 14 b9 00 0c 81 05 02 08 00 00 00 00 00 00 00 0c 81 05 02 

>>> message from 128.141.177.225:46288, size=566
1c 00 00 00 3b 03 00 00 01 14 b9 00 0d 81 05 02 08 00 00 00 00 00 00 00 0d 81 05 02 

>>> message from 128.141.177.225:46288, size=566
1c 00 00 00 3b 03 00 00 01 14 b9 00 0e 81 05 02 08 00 00 00 00 00 00 00 0e 81 05 02 

>>> message from 128.141.177.225:46288, size=566
1c 00 00 00 3b 03 00 00 01 14 b9 00 0f 81 05 02 08 00 00 00 00 00 00 00 0f 81 05 02 

>>> message from 128.141.177.225:46288, size=566
1c 00 00 00 3b 03 00 00 01 14 b9 00 10 81 05 02 08 00 00 00 00 00 00 00 10 81 05 02 

>>> message from 128.141.177.225:46288, size=566
1c 00 00 00 3b 03 00 00 01 14 b9 00 11 81 05 02 08 00 00 00 00 00 00 00 11 81 05 02 

>>> message from 128.141.177.225:46288, size=566
1c 00 00 00 3b 03 00 00 01 14 b9 00 12 81 05 02 08 00 00 00 00 00 00 00 12 81 05 02 

>>> message from 128.141.177.225:46288, size=566
1c 00 00 00 3b 03 00 00 01 14 b9 00 13 81 05 02 08 00 00 00 00 00 00 00 13 81 05 02 

>>> message from 128.141.177.225:46288, size=566
1c 00 00 00 3b 03 00 00 01 14 b9 00 14 81 05 02 08 00 00 00 00 00 00 00 14 81 05 02 

>>> message from 128.141.177.225:46288, size=566
1c 00 00 00 3b 03 00 00 01 14 b9 00 15 81 05 02 08 00 00 00 00 00 00 00 15 81 05 02 

>>> message from 128.141.177.225:46288, size=566
1c 00 00 00 3b 03 00 00 01 14 b9 00 16 81 05 02 08 00 00 00 00 00 00 00 16 81 05 02 

>>> message from 128.141.177.225:46288, size=566
1c 00 00 00 3b 03 00 00 01 14 b9 00 17 81 05 02 08 00 00 00 00 00 00 00 17 81 05 02 

>>> message from 128.141.177.225:46288, size=566
1c 00 00 00 3b 03 00 00 01 14 b9 00 18 81 05 02 08 00 00 00 00 00 00 00 18 81 05 02 

>>> message from 128.141.177.225:46288, size=566
1c 00 00 00 3b 03 00 00 01 14 b9 00 19 81 05 02 08 00 00 00 00 00 00 00 19 81 05 02 

>>> message from 128.141.177.225:46288, size=566
1c 00 00 00 3b 03 00 00 01 14 b9 00 1a 81 05 02 08 00 00 00 00 00 00 00 1a 81 05 02 

>>> message from 128.141.177.225:46288, size=566
1c 00 00 00 3b 03 00 00 01 14 b9 00 1b 81 05 02 08 00 00 00 00 00 00 00 1b 81 05 02 

>>> message from 128.141.177.225:46288, size=566
1c 00 00 00 3b 03 00 00 01 14 b9 00 1c 81 05 02 08 00 00 00 00 00 00 00 1c 81 05 02 

>>> message from 128.141.177.225:46288, size=566
1c 00 00 00 3b 03 00 00 01 14 b9 00 1d 81 05 02 08 00 00 00 00 00 00 00 1d 81 05 02 

>>> message from 128.141.177.225:46288, size=566
1c 00 00 00 3b 03 00 00 01 14 b9 00 1e 81 05 02 08 00 00 00 00 00 00 00 1e 81 05 02 

>>> message from 128.141.177.225:46288, size=566
1c 00 00 00 3b 03 00 00 01 14 b9 00 1f 81 05 02 08 00 00 00 00 00 00 00 1f 81 05 02 

>>> message from 128.141.177.225:46288, size=566
1c 00 00 00 3b 03 00 00 01 14 b9 00 20 81 05 02 08 00 00 00 00 00 00 00 20 81 05 02 

>>> message from 128.141.177.225:46288, size=566
1c 00 00 00 3b 03 00 00 01 14 b9 00 21 81 05 02 08 00 00 00 00 00 00 00 21 81 05 02 

>>> message from 128.141.177.225:46288, size=566
1c 00 00 00 3b 03 00 00 01 14 b9 00 22 81 05 02 08 00 00 00 00 00 00 00 22 81 05 02 

>>> message from 128.141.177.225:46288, size=566
1c 00 00 00 3b 03 00 00 01 14 b9 00 23 81 05 02 08 00 00 00 00 00 00 00 23 81 05 02 

>>> message from 128.141.177.225:46288, size=566
1c 00 00 00 3b 03 00 00 01 14 b9 00 24 81 05 02 08 00 00 00 00 00 00 00 24 81 05 02 

>>> message from 128.141.177.225:46288, size=566
1c 00 00 00 3b 03 00 00 01 14 b9 00 25 81 05 02 08 00 00 00 00 00 00 00 25 81 05 02 

>>> message from 128.141.177.225:46288, size=566
1c 00 00 00 3b 03 00 00 01 14 b9 00 26 81 05 02 08 00 00 00 00 00 00 00 26 81 05 02 

>>> message from 128.141.177.225:46288, size=566
1c 00 00 00 3b 03 00 00 01 14 b9 00 27 81 05 02 08 00 00 00 00 00 00 00 27 81 05 02 

>>> message from 128.141.177.225:46288, size=566
1c 00 00 00 3b 03 00 00 01 14 b9 00 28 81 05 02 08 00 00 00 00 00 00 00 28 81 05 02 

>>> message from 128.141.177.225:46288, size=566
1c 00 00 00 3b 03 00 00 01 14 b9 00 29 81 05 02 08 00 00 00 00 00 00 00 29 81 05 02 

>>> message from 128.141.177.225:46288, size=566
1c 00 00 00 3b 03 00 00 01 14 b9 00 2a 81 05 02 08 00 00 00 00 00 00 00 2a 81 05 02 

>>> message from 128.141.177.225:46288, size=566
1c 00 00 00 3b 03 00 00 01 14 b9 00 2b 81 05 02 08 00 00 00 00 00 00 00 2b 81 05 02 

>>> message from 128.141.177.225:46288, size=566
1c 00 00 00 3b 03 00 00 01 14 b9 00 2c 81 05 02 08 00 00 00 00 00 00 00 2c 81 05 02 

>>> message from 128.141.177.225:46288, size=566
1c 00 00 00 3b 03 00 00 01 14 b9 00 2d 81 05 02 08 00 00 00 00 00 00 00 2d 81 05 02 

>>> message from 128.141.177.225:46288, size=566
1c 00 00 00 3b 03 00 00 01 14 b9 00 2e 81 05 02 08 00 00 00 00 00 00 00 2e 81 05 02 

>>> message from 128.141.177.225:46288, size=566
1c 00 00 00 3b 03 00 00 01 14 b9 00 2f 81 05 02 08 00 00 00 00 00 00 00 2f 81 05 02 

>>> message from 128.141.177.225:46288, size=566
1c 00 00 00 3b 03 00 00 01 14 b9 00 30 81 05 02 08 00 00 00 00 00 00 00 30 81 05 02 

>>> message from 128.141.177.225:46288, size=566
1c 00 00 00 3b 03 00 00 01 14 b9 00 31 81 05 02 08 00 00 00 00 00 00 00 31 81 05 02 

>>> message from 128.141.177.225:46288, size=566
1c 00 00 00 3b 03 00 00 01 14 b9 00 32 81 05 02 08 00 00 00 00 00 00 00 32 81 05 02 

>>> message from 128.141.177.225:46288, size=566
1c 00 00 00 3b 03 00 00 01 14 b9 00 33 81 05 02 08 00 00 00 00 00 00 00 33 81 05 02 

>>> message from 128.141.177.225:46288, size=566
1c 00 00 00 3b 03 00 00 01 14 b9 00 34 81 05 02 08 00 00 00 00 00 00 00 34 81 05 02 

>>> message from 128.141.177.225:46288, size=566
1c 00 00 00 3b 03 00 00 01 14 b9 00 35 81 05 02 08 00 00 00 00 00 00 00 35 81 05 02 

>>> message from 128.141.177.225:46288, size=566
1c 00 00 00 3b 03 00 00 01 14 b9 00 36 81 05 02 08 00 00 00 00 00 00 00 36 81 05 02 

>>> message from 128.141.177.225:46288, size=566
1c 00 00 00 3b 03 00 00 01 14 b9 00 37 81 05 02 08 00 00 00 00 00 00 00 37 81 05 02 

>>> message from 128.141.177.225:46288, size=566
1c 00 00 00 3b 03 00 00 01 14 b9 00 38 81 05 02 08 00 00 00 00 00 00 00 38 81 05 02 

>>> message from 128.141.177.225:46288, size=566
1c 00 00 00 3b 03 00 00 01 14 b9 00 39 81 05 02 08 00 00 00 00 00 00 00 39 81 05 02 

>>> message from 128.141.177.225:46288, size=566
1c 00 00 00 3b 03 00 00 01 14 b9 00 3a 81 05 02 08 00 00 00 00 00 00 00 3a 81 05 02 

>>> message from 128.141.177.225:46288, size=566
1c 00 00 00 3b 03 00 00 01 14 b9 00 3b 81 05 02 08 00 00 00 00 00 00 00 3b 81 05 02 

>>> message from 128.141.177.225:46288, size=566
1c 00 00 00 3b 03 00 00 01 14 b9 00 3c 81 05 02 08 00 00 00 00 00 00 00 3c 81 05 02 

>>> message from 128.141.177.225:46288, size=566
1c 00 00 00 3b 03 00 00 01 14 b9 00 3d 81 05 02 08 00 00 00 00 00 00 00 3d 81 05 02 

>>> message from 128.141.177.225:46288, size=566
1c 00 00 00 3b 03 00 00 01 14 b9 00 3e 81 05 02 08 00 00 00 00 00 00 00 3e 81 05 02 

>>> message from 128.141.177.225:46288, size=566
1c 00 00 00 3b 03 00 00 01 14 b9 00 3f 81 05 02 08 00 00 00 00 00 00 00 3f 81 05 02 

>>> message from 128.141.177.225:46288, size=566
1c 00 00 00 3b 03 00 00 01 14 b9 00 40 81 05 02 08 00 00 00 00 00 00 00 40 81 05 02 

>>> message from 128.141.177.225:46288, size=566
1c 00 00 00 3b 03 00 00 01 14 b9 00 41 81 05 02 08 00 00 00 00 00 00 00 41 81 05 02 

>>> message from 128.141.177.225:46288, size=566
1c 00 00 00 3b 03 00 00 01 14 b9 00 42 81 05 02 08 00 00 00 00 00 00 00 42 81 05 02 

>>> message from 128.141.177.225:46288, size=566
1c 00 00 00 3b 03 00 00 01 14 b9 00 43 81 05 02 08 00 00 00 00 00 00 00 43 81 05 02 

>>> message from 128.141.177.225:46288, size=566
1c 00 00 00 3b 03 00 00 01 14 b9 00 44 81 05 02 08 00 00 00 00 00 00 00 44 81 05 02 

>>> message from 128.141.177.225:46288, size=566
1c 00 00 00 3b 03 00 00 01 14 b9 00 45 81 05 02 08 00 00 00 00 00 00 00 45 81 05 02 

>>> message from 128.141.177.225:46288, size=566
1c 00 00 00 3b 03 00 00 01 14 b9 00 46 81 05 02 08 00 00 00 00 00 00 00 46 81 05 02 

>>> message from 128.141.177.225:46288, size=566
1c 00 00 00 3b 03 00 00 01 14 b9 00 47 81 05 02 08 00 00 00 00 00 00 00 47 81 05 02 

>>> message from 128.141.177.225:46288, size=566
1c 00 00 00 3b 03 00 00 01 14 b9 00 48 81 05 02 08 00 00 00 00 00 00 00 48 81 05 02 

>>> message from 128.141.177.225:46288, size=566
1c 00 00 00 3b 03 00 00 01 14 b9 00 49 81 05 02 08 00 00 00 00 00 00 00 49 81 05 02 

>>> message from 128.141.177.225:46288, size=566
1c 00 00 00 3b 03 00 00 01 14 b9 00 4a 81 05 02 08 00 00 00 00 00 00 00 4a 81 05 02 

>>> message from 128.141.177.225:46288, size=566
1c 00 00 00 3b 03 00 00 01 14 b9 00 4b 81 05 02 08 00 00 00 00 00 00 00 4b 81 05 02 

>>> message from 128.141.177.225:46288, size=566
1c 00 00 00 3b 03 00 00 01 14 b9 00 4c 81 05 02 08 00 00 00 00 00 00 00 4c 81 05 02 

>>> message from 128.141.177.225:46288, size=566
1c 00 00 00 3b 03 00 00 01 14 b9 00 4d 81 05 02 08 00 00 00 00 00 00 00 4d 81 05 02 

>>> message from 128.141.177.225:46288, size=566
1c 00 00 00 3b 03 00 00 01 14 b9 00 4e 81 05 02 08 00 00 00 00 00 00 00 4e 81 05 02 

>>> message from 128.141.177.225:46288, size=566
1c 00 00 00 3b 03 00 00 01 14 b9 00 4f 81 05 02 08 00 00 00 00 00 00 00 4f 81 05 02 

>>> message from 128.141.177.225:46288, size=566
1c 00 00 00 3b 03 00 00 01 14 b9 00 50 81 05 02 08 00 00 00 00 00 00 00 50 81 05 02 

>>> message from 128.141.177.225:46288, size=566
1c 00 00 00 3b 03 00 00 01 14 b9 00 51 81 05 02 08 00 00 00 00 00 00 00 51 81 05 02 

>>> message from 128.141.177.225:46288, size=566
1c 00 00 00 3b 03 00 00 01 14 b9 00 52 81 05 02 08 00 00 00 00 00 00 00 52 81 05 02 

>>> message from 128.141.177.225:46288, size=566
1c 00 00 00 3b 03 00 00 01 14 b9 00 53 81 05 02 08 00 00 00 00 00 00 00 53 81 05 02 

>>> message from 128.141.177.225:46288, size=566
1c 00 00 00 3b 03 00 00 01 14 b9 00 54 81 05 02 08 00 00 00 00 00 00 00 54 81 05 02 

>>> message from 128.141.177.225:46288, size=566
1c 00 00 00 3b 03 00 00 01 14 b9 00 55 81 05 02 08 00 00 00 00 00 00 00 55 81 05 02 

>>> message from 128.141.177.225:46288, size=566
1c 00 00 00 3b 03 00 00 01 14 b9 00 56 81 05 02 08 00 00 00 00 00 00 00 56 81 05 02 

>>> message from 128.141.177.225:46288, size=566
1c 00 00 00 3b 03 00 00 01 14 b9 00 57 81 05 02 08 00 00 00 00 00 00 00 57 81 05 02 

>>> message from 128.141.177.225:46288, size=566
1c 00 00 00 3b 03 00 00 01 14 b9 00 58 81 05 02 08 00 00 00 00 00 00 00 58 81 05 02 

>>> message from 128.141.177.225:46288, size=566
1c 00 00 00 3b 03 00 00 01 14 b9 00 59 81 05 02 08 00 00 00 00 00 00 00 59 81 05 02 

>>> message from 128.141.177.225:46288, size=566
1c 00 00 00 3b 03 00 00 01 14 b9 00 5a 81 05 02 08 00 00 00 00 00 00 00 5a 81 05 02 

>>> message from 128.141.177.225:46288, size=566
1c 00 00 00 3b 03 00 00 01 14 b9 00 5b 81 05 02 08 00 00 00 00 00 00 00 5b 81 05 02 

>>> message from 128.141.177.225:46288, size=566
1c 00 00 00 3b 03 00 00 01 14 b9 00 5c 81 05 02 08 00 00 00 00 00 00 00 5c 81 05 02 

>>> message from 128.141.177.225:46288, size=566
1c 00 00 00 3b 03 00 00 01 14 b9 00 5d 81 05 02 08 00 00 00 00 00 00 00 5d 81 05 02 

>>> message from 128.141.177.225:46288, size=566
1c 00 00 00 3b 03 00 00 01 14 b9 00 5e 81 05 02 08 00 00 00 00 00 00 00 5e 81 05 02 

>>> message from 128.141.177.225:46288, size=566
1c 00 00 00 3b 03 00 00 01 14 b9 00 5f 81 05 02 08 00 00 00 00 00 00 00 5f 81 05 02 

>>> message from 128.141.177.225:46288, size=566
1c 00 00 00 3b 03 00 00 01 14 b9 00 60 81 05 02 08 00 00 00 00 00 00 00 60 81 05 02 

>>> message from 128.141.177.225:46288, size=566
1c 00 00 00 3b 03 00 00 01 14 b9 00 61 81 05 02 08 00 00 00 00 00 00 00 61 81 05 02 

>>> message from 128.141.177.225:46288, size=566
1c 00 00 00 3b 03 00 00 01 14 b9 00 62 81 05 02 08 00 00 00 00 00 00 00 62 81 05 02 

>>> message from 128.141.177.225:46288, size=566
1c 00 00 00 3b 03 00 00 01 14 b9 00 63 81 05 02 08 00 00 00 00 00 00 00 63 81 05 02 

>>> message from 128.141.177.225:46288, size=566
1c 00 00 00 3b 03 00 00 01 14 b9 00 64 81 05 02 08 00 00 00 00 00 00 00 64 81 05 02 

>>> message from 128.141.177.225:46288, size=566
1c 00 00 00 3b 03 00 00 01 14 b9 00 65 81 05 02 08 00 00 00 00 00 00 00 65 81 05 02 

>>> message from 128.141.177.225:46288, size=566
1c 00 00 00 3b 03 00 00 01 14 b9 00 66 81 05 02 08 00 00 00 00 00 00 00 66 81 05 02 

>>> message from 128.141.177.225:46288, size=566
1c 00 00 00 3b 03 00 00 01 14 b9 00 67 81 05 02 08 00 00 00 00 00 00 00 67 81 05 02 

>>> message from 128.141.177.225:46288, size=566
1c 00 00 00 3b 03 00 00 01 14 b9 00 68 81 05 02 08 00 00 00 00 00 00 00 68 81 05 02 

>>> message from 128.141.177.225:46288, size=566
1c 00 00 00 3b 03 00 00 01 14 b9 00 69 81 05 02 08 00 00 00 00 00 00 00 69 81 05 02 

>>> message from 128.141.177.225:46288, size=566
1c 00 00 00 3b 03 00 00 01 14 b9 00 6a 81 05 02 08 00 00 00 00 00 00 00 6a 81 05 02 

>>> message from 128.141.177.225:46288, size=566
1c 00 00 00 3b 03 00 00 01 14 b9 00 6b 81 05 02 08 00 00 00 00 00 00 00 6b 81 05 02 

>>> message from 128.141.177.225:46288, size=566
1c 00 00 00 3b 03 00 00 01 14 b9 00 6c 81 05 02 08 00 00 00 00 00 00 00 6c 81 05 02 

>>> message from 128.141.177.225:46288, size=566
1c 00 00 00 3b 03 00 00 01 14 b9 00 6d 81 05 02 08 00 00 00 00 00 00 00 6d 81 05 02 

>>> message from 128.141.177.225:46288, size=566
1c 00 00 00 3b 03 00 00 01 14 b9 00 6e 81 05 02 08 00 00 00 00 00 00 00 6e 81 05 02 

>>> message from 128.141.177.225:46288, size=566
1c 00 00 00 3b 03 00 00 01 14 b9 00 6f 81 05 02 08 00 00 00 00 00 00 00 6f 81 05 02 

>>> message from 128.141.177.225:46288, size=566
1c 00 00 00 3b 03 00 00 01 14 b9 00 70 81 05 02 08 00 00 00 00 00 00 00 70 81 05 02 

>>> message from 128.141.177.225:46288, size=566
1c 00 00 00 3b 03 00 00 01 14 b9 00 71 81 05 02 08 00 00 00 00 00 00 00 71 81 05 02 

>>> message from 128.141.177.225:46288, size=566
1c 00 00 00 3b 03 00 00 01 14 b9 00 72 81 05 02 08 00 00 00 00 00 00 00 72 81 05 02 

>>> message from 128.141.177.225:46288, size=566
1c 00 00 00 3b 03 00 00 01 14 b9 00 73 81 05 02 08 00 00 00 00 00 00 00 73 81 05 02 

>>> message from 128.141.177.225:46288, size=566
1c 00 00 00 3b 03 00 00 01 14 b9 00 74 81 05 02 08 00 00 00 00 00 00 00 74 81 05 02 

>>> message from 128.141.177.225:46288, size=566
1c 00 00 00 3b 03 00 00 01 14 b9 00 75 81 05 02 08 00 00 00 00 00 00 00 75 81 05 02 

>>> message from 128.141.177.225:46288, size=566
1c 00 00 00 3b 03 00 00 01 14 b9 00 76 81 05 02 08 00 00 00 00 00 00 00 76 81 05 02 

>>> message from 128.141.177.225:46288, size=566
1c 00 00 00 3b 03 00 00 01 14 b9 00 77 81 05 02 08 00 00 00 00 00 00 00 77 81 05 02 

>>> message from 128.141.177.225:46288, size=566
1c 00 00 00 3b 03 00 00 01 14 b9 00 78 81 05 02 08 00 00 00 00 00 00 00 78 81 05 02 

>>> message from 128.141.177.225:46288, size=566
1c 00 00 00 3b 03 00 00 01 14 b9 00 79 81 05 02 08 00 00 00 00 00 00 00 79 81 05 02 

>>> message from 128.141.177.225:46288, size=566
1c 00 00 00 3b 03 00 00 01 14 b9 00 7a 81 05 02 08 00 00 00 00 00 00 00 7a 81 05 02 

>>> message from 128.141.177.225:46288, size=566
1c 00 00 00 3b 03 00 00 01 14 b9 00 7b 81 05 02 08 00 00 00 00 00 00 00 7b 81 05 02 

>>> message from 128.141.177.225:46288, size=566
1c 00 00 00 3b 03 00 00 01 14 b9 00 7c 81 05 02 08 00 00 00 00 00 00 00 7c 81 05 02 

>>> message from 128.141.177.225:46288, size=566
1c 00 00 00 3b 03 00 00 01 14 b9 00 7d 81 05 02 08 00 00 00 00 00 00 00 7d 81 05 02 

>>> message from 128.141.177.225:46288, size=566
1c 00 00 00 3b 03 00 00 01 14 b9 00 7e 81 05 02 08 00 00 00 00 00 00 00 7e 81 05 02 

>>> message from 128.141.177.225:46288, size=566
1c 00 00 00 3b 03 00 00 01 14 b9 00 7f 81 05 02 08 00 00 00 00 00 00 00 7f 81 05 02 

>>> message from 128.141.177.225:46288, size=566
1c 00 00 00 3b 03 00 00 01 14 b9 00 80 81 05 02 08 00 00 00 00 00 00 00 80 81 05 02 

>>> message from 128.141.177.225:46288, size=566
1c 00 00 00 3b 03 00 00 01 14 b9 00 81 81 05 02 08 00 00 00 00 00 00 00 81 81 05 02 

>>> message from 128.141.177.225:46288, size=566
1c 00 00 00 3b 03 00 00 01 14 b9 00 82 81 05 02 08 00 00 00 00 00 00 00 82 81 05 02 

>>> message from 128.141.177.225:46288, size=566
1c 00 00 00 3b 03 00 00 01 14 b9 00 83 81 05 02 08 00 00 00 00 00 00 00 83 81 05 02 

>>> message from 128.141.177.225:46288, size=566
1c 00 00 00 3b 03 00 00 01 14 b9 00 84 81 05 02 08 00 00 00 00 00 00 00 84 81 05 02 

>>> message from 128.141.177.225:46288, size=566
1c 00 00 00 3b 03 00 00 01 14 b9 00 85 81 05 02 08 00 00 00 00 00 00 00 85 81 05 02 

>>> message from 128.141.177.225:46288, size=566
1c 00 00 00 3b 03 00 00 01 14 b9 00 86 81 05 02 08 00 00 00 00 00 00 00 86 81 05 02 

>>> message from 128.141.177.225:46288, size=566
1c 00 00 00 3b 03 00 00 01 14 b9 00 87 81 05 02 08 00 00 00 00 00 00 00 87 81 05 02 

>>> message from 128.141.177.225:46288, size=566
1c 00 00 00 3b 03 00 00 01 14 b9 00 88 81 05 02 08 00 00 00 00 00 00 00 88 81 05 02 

>>> message from 128.141.177.225:46288, size=566
1c 00 00 00 3b 03 00 00 01 14 b9 00 89 81 05 02 08 00 00 00 00 00 00 00 89 81 05 02 

>>> message from 128.141.177.225:46288, size=566
1c 00 00 00 3b 03 00 00 01 14 b9 00 8a 81 05 02 08 00 00 00 00 00 00 00 8a 81 05 02 

>>> message from 128.141.177.225:46288, size=566
1c 00 00 00 3b 03 00 00 01 14 b9 00 8b 81 05 02 08 00 00 00 00 00 00 00 8b 81 05 02 

>>> message from 128.141.177.225:46288, size=566
1c 00 00 00 3b 03 00 00 01 14 b9 00 8c 81 05 02 08 00 00 00 00 00 00 00 8c 81 05 02 

>>> message from 128.141.177.225:46288, size=566
1c 00 00 00 3b 03 00 00 01 14 b9 00 8d 81 05 02 08 00 00 00 00 00 00 00 8d 81 05 02 

>>> message from 128.141.177.225:46288, size=566
1c 00 00 00 3b 03 00 00 01 14 b9 00 8e 81 05 02 08 00 00 00 00 00 00 00 8e 81 05 02 

>>> message from 128.141.177.225:46288, size=566
1c 00 00 00 3b 03 00 00 01 14 b9 00 8f 81 05 02 08 00 00 00 00 00 00 00 8f 81 05 02 

>>> message from 128.141.177.225:46288, size=566
1c 00 00 00 3b 03 00 00 01 14 b9 00 90 81 05 02 08 00 00 00 00 00 00 00 90 81 05 02 

>>> message from 128.141.177.225:46288, size=566
1c 00 00 00 3b 03 00 00 01 14 b9 00 91 81 05 02 08 00 00 00 00 00 00 00 91 81 05 02 

>>> message from 128.141.177.225:46288, size=566
1c 00 00 00 3b 03 00 00 01 14 b9 00 92 81 05 02 08 00 00 00 00 00 00 00 92 81 05 02 

>>> message from 128.141.177.225:46288, size=566
1c 00 00 00 3b 03 00 00 01 14 b9 00 93 81 05 02 08 00 00 00 00 00 00 00 93 81 05 02 

>>> message from 128.141.177.225:46288, size=566
1c 00 00 00 3b 03 00 00 01 14 b9 00 94 81 05 02 08 00 00 00 00 00 00 00 94 81 05 02 

>>> message from 128.141.177.225:46288, size=566
1c 00 00 00 3b 03 00 00 01 14 b9 00 95 81 05 02 08 00 00 00 00 00 00 00 95 81 05 02 

>>> message from 128.141.177.225:46288, size=566
1c 00 00 00 3b 03 00 00 01 14 b9 00 96 81 05 02 08 00 00 00 00 00 00 00 96 81 05 02 

>>> message from 128.141.177.225:46288, size=566
1c 00 00 00 3b 03 00 00 01 14 b9 00 97 81 05 02 08 00 00 00 00 00 00 00 97 81 05 02 

>>> message from 128.141.177.225:46288, size=566
1c 00 00 00 3b 03 00 00 01 14 b9 00 98 81 05 02 08 00 00 00 00 00 00 00 98 81 05 02 

>>> message from 128.141.177.225:46288, size=566
1c 00 00 00 3b 03 00 00 01 14 b9 00 99 81 05 02 08 00 00 00 00 00 00 00 99 81 05 02 

>>> message from 128.141.177.225:46288, size=566
1c 00 00 00 3b 03 00 00 01 14 b9 00 9a 81 05 02 08 00 00 00 00 00 00 00 9a 81 05 02 

>>> message from 128.141.177.225:46288, size=566
1c 00 00 00 3b 03 00 00 01 14 b9 00 9b 81 05 02 08 00 00 00 00 00 00 00 9b 81 05 02 

>>> message from 128.141.177.225:46288, size=566
1c 00 00 00 3b 03 00 00 01 14 b9 00 9c 81 05 02 08 00 00 00 00 00 00 00 9c 81 05 02 

>>> message from 128.141.177.225:46288, size=566
1c 00 00 00 3b 03 00 00 01 14 b9 00 9d 81 05 02 08 00 00 00 00 00 00 00 9d 81 05 02 

>>> message from 128.141.177.225:46288, size=566
1c 00 00 00 3b 03 00 00 01 14 b9 00 9e 81 05 02 08 00 00 00 00 00 00 00 9e 81 05 02 

>>> message from 128.141.177.225:46288, size=566
1c 00 00 00 3b 03 00 00 01 14 b9 00 9f 81 05 02 08 00 00 00 00 00 00 00 9f 81 05 02 

>>> message from 128.141.177.225:46288, size=566
1c 00 00 00 3b 03 00 00 01 14 b9 00 a0 81 05 02 08 00 00 00 00 00 00 00 a0 81 05 02 

>>> message from 128.141.177.225:46288, size=566
1c 00 00 00 3b 03 00 00 01 14 b9 00 a1 81 05 02 08 00 00 00 00 00 00 00 a1 81 05 02 

>>> message from 128.141.177.225:46288, size=566
1c 00 00 00 3b 03 00 00 01 14 b9 00 a2 81 05 02 08 00 00 00 00 00 00 00 a2 81 05 02 

>>> message from 128.141.177.225:46288, size=566
1c 00 00 00 3b 03 00 00 01 14 b9 00 a3 81 05 02 08 00 00 00 00 00 00 00 a3 81 05 02 

>>> message from 128.141.177.225:46288, size=566
1c 00 00 00 3b 03 00 00 01 14 b9 00 a4 81 05 02 08 00 00 00 00 00 00 00 a4 81 05 02 

>>> message from 128.141.177.225:46288, size=566
1c 00 00 00 3b 03 00 00 01 14 b9 00 a5 81 05 02 08 00 00 00 00 00 00 00 a5 81 05 02 

>>> message from 128.141.177.225:46288, size=566
1c 00 00 00 3b 03 00 00 01 14 b9 00 a6 81 05 02 08 00 00 00 00 00 00 00 a6 81 05 02 

>>> message from 128.141.177.225:46288, size=566
1c 00 00 00 3b 03 00 00 01 14 b9 00 a7 81 05 02 08 00 00 00 00 00 00 00 a7 81 05 02 

>>> message from 128.141.177.225:46288, size=566
1c 00 00 00 3b 03 00 00 01 14 b9 00 a8 81 05 02 08 00 00 00 00 00 00 00 a8 81 05 02 

>>> message from 128.141.177.225:46288, size=566
1c 00 00 00 3b 03 00 00 01 14 b9 00 a9 81 05 02 08 00 00 00 00 00 00 00 a9 81 05 02 

>>> message from 128.141.177.225:46288, size=566
1c 00 00 00 3b 03 00 00 01 14 b9 00 aa 81 05 02 08 00 00 00 00 00 00 00 aa 81 05 02 

>>> message from 128.141.177.225:46288, size=566
1c 00 00 00 3b 03 00 00 01 14 b9 00 ab 81 05 02 08 00 00 00 00 00 00 00 ab 81 05 02 

>>> message from 128.141.177.225:46288, size=566
1c 00 00 00 3b 03 00 00 01 14 b9 00 ac 81 05 02 08 00 00 00 00 00 00 00 ac 81 05 02 

>>> message from 128.141.177.225:46288, size=566
1c 00 00 00 3b 03 00 00 01 14 b9 00 ad 81 05 02 08 00 00 00 00 00 00 00 ad 81 05 02 

>>> message from 128.141.177.225:46288, size=566
1c 00 00 00 3b 03 00 00 01 14 b9 00 ae 81 05 02 08 00 00 00 00 00 00 00 ae 81 05 02 

>>> message from 128.141.177.225:46288, size=566
1c 00 00 00 3b 03 00 00 01 14 b9 00 af 81 05 02 08 00 00 00 00 00 00 00 af 81 05 02 

>>> message from 128.141.177.225:46288, size=566
1c 00 00 00 3b 03 00 00 01 14 b9 00 b0 81 05 02 08 00 00 00 00 00 00 00 b0 81 05 02 

>>> message from 128.141.177.225:46288, size=566
1c 00 00 00 3b 03 00 00 01 14 b9 00 b1 81 05 02 08 00 00 00 00 00 00 00 b1 81 05 02 

>>> message from 128.141.177.225:46288, size=566
1c 00 00 00 3b 03 00 00 01 14 b9 00 b2 81 05 02 08 00 00 00 00 00 00 00 b2 81 05 02 

>>> message from 128.141.177.225:46288, size=566
1c 00 00 00 3b 03 00 00 01 14 b9 00 b3 81 05 02 08 00 00 00 00 00 00 00 b3 81 05 02 

>>> message from 128.141.177.225:46288, size=566
1c 00 00 00 3b 03 00 00 01 14 b9 00 b4 81 05 02 08 00 00 00 00 00 00 00 b4 81 05 02 

>>> message from 128.141.177.225:46288, size=566
1c 00 00 00 3b 03 00 00 01 14 b9 00 b5 81 05 02 08 00 00 00 00 00 00 00 b5 81 05 02 

>>> message from 128.141.177.225:46288, size=566
1c 00 00 00 3b 03 00 00 01 14 b9 00 b6 81 05 02 08 00 00 00 00 00 00 00 b6 81 05 02 

>>> message from 128.141.177.225:46288, size=566
1c 00 00 00 3b 03 00 00 01 14 b9 00 b7 81 05 02 08 00 00 00 00 00 00 00 b7 81 05 02 

>>> message from 128.141.177.225:46288, size=566
1c 00 00 00 3b 03 00 00 01 14 b9 00 b8 81 05 02 08 00 00 00 00 00 00 00 b8 81 05 02 

>>> message from 128.141.177.225:46288, size=566
1c 00 00 00 3b 03 00 00 01 14 b9 00 b9 81 05 02 08 00 00 00 00 00 00 00 b9 81 05 02 

>>> message from 128.141.177.225:46288, size=566
1c 00 00 00 3b 03 00 00 01 14 b9 00 ba 81 05 02 08 00 00 00 00 00 00 00 ba 81 05 02 

>>> message from 128.141.177.225:46288, size=566
1c 00 00 00 3b 03 00 00 01 14 b9 00 bb 81 05 02 08 00 00 00 00 00 00 00 bb 81 05 02 

>>> message from 128.141.177.225:46288, size=566
1c 00 00 00 3b 03 00 00 01 14 b9 00 bc 81 05 02 08 00 00 00 00 00 00 00 bc 81 05 02 

>>> message from 128.141.177.225:46288, size=566
1c 00 00 00 3b 03 00 00 01 14 b9 00 bd 81 05 02 08 00 00 00 00 00 00 00 bd 81 05 02 

>>> message from 128.141.177.225:46288, size=566
1c 00 00 00 3b 03 00 00 01 14 b9 00 be 81 05 02 08 00 00 00 00 00 00 00 be 81 05 02 

>>> message from 128.141.177.225:46288, size=566
1c 00 00 00 3b 03 00 00 01 14 b9 00 bf 81 05 02 08 00 00 00 00 00 00 00 bf 81 05 02 

>>> message from 128.141.177.225:46288, size=566
1c 00 00 00 3b 03 00 00 01 14 b9 00 c0 81 05 02 08 00 00 00 00 00 00 00 c0 81 05 02 

>>> message from 128.141.177.225:46288, size=566
1c 00 00 00 3b 03 00 00 01 14 b9 00 c1 81 05 02 08 00 00 00 00 00 00 00 c1 81 05 02 

>>> message from 128.141.177.225:46288, size=566
1c 00 00 00 3b 03 00 00 01 14 b9 00 c2 81 05 02 08 00 00 00 00 00 00 00 c2 81 05 02 

>>> message from 128.141.177.225:46288, size=566
1c 00 00 00 3b 03 00 00 01 14 b9 00 c3 81 05 02 08 00 00 00 00 00 00 00 c3 81 05 02 

>>> message from 128.141.177.225:46288, size=566
1c 00 00 00 3b 03 00 00 01 14 b9 00 c4 81 05 02 08 00 00 00 00 00 00 00 c4 81 05 02 

>>> message from 128.141.177.225:46288, size=566
1c 00 00 00 3b 03 00 00 01 14 b9 00 c5 81 05 02 08 00 00 00 00 00 00 00 c5 81 05 02 

>>> message from 128.141.177.225:46288, size=566
1c 00 00 00 3b 03 00 00 01 14 b9 00 c6 81 05 02 08 00 00 00 00 00 00 00 c6 81 05 02 

>>> message from 128.141.177.225:46288, size=566
1c 00 00 00 3b 03 00 00 01 14 b9 00 c7 81 05 02 08 00 00 00 00 00 00 00 c7 81 05 02 

>>> message from 128.141.177.225:46288, size=566
1c 00 00 00 3b 03 00 00 01 14 b9 00 c8 81 05 02 08 00 00 00 00 00 00 00 c8 81 05 02 

>>> message from 128.141.177.225:46288, size=566
1c 00 00 00 3b 03 00 00 01 14 b9 00 c9 81 05 02 08 00 00 00 00 00 00 00 c9 81 05 02 

>>> message from 128.141.177.225:46288, size=566
1c 00 00 00 3b 03 00 00 01 14 b9 00 ca 81 05 02 08 00 00 00 00 00 00 00 ca 81 05 02 

>>> message from 128.141.177.225:46288, size=566
1c 00 00 00 3b 03 00 00 01 14 b9 00 cb 81 05 02 08 00 00 00 00 00 00 00 cb 81 05 02 

>>> message from 128.141.177.225:46288, size=566
1c 00 00 00 3b 03 00 00 01 14 b9 00 cc 81 05 02 08 00 00 00 00 00 00 00 cc 81 05 02 

>>> message from 128.141.177.225:46288, size=566
1c 00 00 00 3b 03 00 00 01 14 b9 00 cd 81 05 02 08 00 00 00 00 00 00 00 cd 81 05 02 

>>> message from 128.141.177.225:46288, size=566
1c 00 00 00 3b 03 00 00 01 14 b9 00 ce 81 05 02 08 00 00 00 00 00 00 00 ce 81 05 02 

>>> message from 128.141.177.225:46288, size=566
1c 00 00 00 3b 03 00 00 01 14 b9 00 cf 81 05 02 08 00 00 00 00 00 00 00 cf 81 05 02 

>>> message from 128.141.177.225:46288, size=566
1c 00 00 00 3b 03 00 00 01 14 b9 00 d0 81 05 02 08 00 00 00 00 00 00 00 d0 81 05 02 

>>> message from 128.141.177.225:46288, size=566
1c 00 00 00 3b 03 00 00 01 14 b9 00 d1 81 05 02 08 00 00 00 00 00 00 00 d1 81 05 02 

>>> message from 128.141.177.225:46288, size=566
1c 00 00 00 3b 03 00 00 01 14 b9 00 d2 81 05 02 08 00 00 00 00 00 00 00 d2 81 05 02 

>>> message from 128.141.177.225:46288, size=566
1c 00 00 00 3b 03 00 00 01 14 b9 00 d3 81 05 02 08 00 00 00 00 00 00 00 d3 81 05 02 

>>> message from 128.141.177.225:46288, size=566
1c 00 00 00 3b 03 00 00 01 14 b9 00 d4 81 05 02 08 00 00 00 00 00 00 00 d4 81 05 02 

>>> message from 128.141.177.225:46288, size=566
1c 00 00 00 3b 03 00 00 01 14 b9 00 d5 81 05 02 08 00 00 00 00 00 00 00 d5 81 05 02 

>>> message from 128.141.177.225:46288, size=566
1c 00 00 00 3b 03 00 00 01 14 b9 00 d6 81 05 02 08 00 00 00 00 00 00 00 d6 81 05 02 

>>> message from 128.141.177.225:46288, size=566
1c 00 00 00 3b 03 00 00 01 14 b9 00 d7 81 05 02 08 00 00 00 00 00 00 00 d7 81 05 02 

>>> message from 128.141.177.225:46288, size=566
1c 00 00 00 3b 03 00 00 01 14 b9 00 d8 81 05 02 08 00 00 00 00 00 00 00 d8 81 05 02 

>>> message from 128.141.177.225:46288, size=566
1c 00 00 00 3b 03 00 00 01 14 b9 00 d9 81 05 02 08 00 00 00 00 00 00 00 d9 81 05 02 

>>> message from 128.141.177.225:46288, size=566
1c 00 00 00 3b 03 00 00 01 14 b9 00 da 81 05 02 08 00 00 00 00 00 00 00 da 81 05 02 

>>> message from 128.141.177.225:46288, size=566
1c 00 00 00 3b 03 00 00 01 14 b9 00 db 81 05 02 08 00 00 00 00 00 00 00 db 81 05 02 

>>> message from 128.141.177.225:46288, size=566
1c 00 00 00 3b 03 00 00 01 14 b9 00 dc 81 05 02 08 00 00 00 00 00 00 00 dc 81 05 02 

>>> message from 128.141.177.225:46288, size=566
1c 00 00 00 3b 03 00 00 01 14 b9 00 dd 81 05 02 08 00 00 00 00 00 00 00 dd 81 05 02 

>>> message from 128.141.177.225:46288, size=566
1c 00 00 00 3b 03 00 00 01 14 b9 00 de 81 05 02 08 00 00 00 00 00 00 00 de 81 05 02 

>>> message from 128.141.177.225:46288, size=566
1c 00 00 00 3b 03 00 00 01 14 b9 00 df 81 05 02 08 00 00 00 00 00 00 00 df 81 05 02 

>>> message from 128.141.177.225:46288, size=566
1c 00 00 00 3b 03 00 00 01 14 b9 00 e0 81 05 02 08 00 00 00 00 00 00 00 e0 81 05 02 

>>> message from 128.141.177.225:46288, size=566
1c 00 00 00 3b 03 00 00 01 14 b9 00 e1 81 05 02 08 00 00 00 00 00 00 00 e1 81 05 02 

>>> message from 128.141.177.225:46288, size=566
1c 00 00 00 3b 03 00 00 01 14 b9 00 e2 81 05 02 08 00 00 00 00 00 00 00 e2 81 05 02 

>>> message from 128.141.177.225:46288, size=566
1c 00 00 00 3b 03 00 00 01 14 b9 00 e3 81 05 02 08 00 00 00 00 00 00 00 e3 81 05 02 

>>> message from 128.141.177.225:46288, size=566
1c 00 00 00 3b 03 00 00 01 14 b9 00 e4 81 05 02 08 00 00 00 00 00 00 00 e4 81 05 02 

>>> message from 128.141.177.225:46288, size=566
1c 00 00 00 3b 03 00 00 01 14 b9 00 e5 81 05 02 08 00 00 00 00 00 00 00 e5 81 05 02 

>>> message from 128.141.177.225:46288, size=566
1c 00 00 00 3b 03 00 00 01 14 b9 00 e6 81 05 02 08 00 00 00 00 00 00 00 e6 81 05 02 

>>> message from 128.141.177.225:46288, size=566
1c 00 00 00 3b 03 00 00 01 14 b9 00 e7 81 05 02 08 00 00 00 00 00 00 00 e7 81 05 02 

>>> message from 128.141.177.225:46288, size=566
1c 00 00 00 3b 03 00 00 01 14 b9 00 e8 81 05 02 08 00 00 00 00 00 00 00 e8 81 05 02 

>>> message from 128.141.177.225:46288, size=566
1c 00 00 00 3b 03 00 00 01 14 b9 00 e9 81 05 02 08 00 00 00 00 00 00 00 e9 81 05 02 

>>> message from 128.141.177.225:46288, size=566
1c 00 00 00 3b 03 00 00 01 14 b9 00 ea 81 05 02 08 00 00 00 00 00 00 00 ea 81 05 02 

>>> message from 128.141.177.225:46288, size=566
1c 00 00 00 3b 03 00 00 01 14 b9 00 eb 81 05 02 08 00 00 00 00 00 00 00 eb 81 05 02 

>>> message from 128.141.177.225:46288, size=566
1c 00 00 00 3b 03 00 00 01 14 b9 00 ec 81 05 02 08 00 00 00 00 00 00 00 ec 81 05 02 

>>> message from 128.141.177.225:46288, size=566
1c 00 00 00 3b 03 00 00 01 14 b9 00 ed 81 05 02 08 00 00 00 00 00 00 00 ed 81 05 02 

>>> message from 128.141.177.225:46288, size=566
1c 00 00 00 3b 03 00 00 01 14 b9 00 ee 81 05 02 08 00 00 00 00 00 00 00 ee 81 05 02 

>>> message from 128.141.177.225:46288, size=566
1c 00 00 00 3b 03 00 00 01 14 b9 00 ef 81 05 02 08 00 00 00 00 00 00 00 ef 81 05 02 

>>> message from 128.141.177.225:46288, size=566
1c 00 00 00 3b 03 00 00 01 14 b9 00 f0 81 05 02 08 00 00 00 00 00 00 00 f0 81 05 02 

>>> message from 128.141.177.225:46288, size=566
1c 00 00 00 3b 03 00 00 01 14 b9 00 f1 81 05 02 08 00 00 00 00 00 00 00 f1 81 05 02 

>>> message from 128.141.177.225:46288, size=566
1c 00 00 00 3b 03 00 00 01 14 b9 00 f2 81 05 02 08 00 00 00 00 00 00 00 f2 81 05 02 

>>> message from 128.141.177.225:46288, size=566
1c 00 00 00 3b 03 00 00 01 14 b9 00 f3 81 05 02 08 00 00 00 00 00 00 00 f3 81 05 02 

>>> message from 128.141.177.225:46288, size=566
1c 00 00 00 3b 03 00 00 01 14 b9 00 f4 81 05 02 08 00 00 00 00 00 00 00 f4 81 05 02 

>>> message from 128.141.177.225:46288, size=566
1c 00 00 00 3b 03 00 00 01 14 b9 00 f5 81 05 02 08 00 00 00 00 00 00 00 f5 81 05 02 

>>> message from 128.141.177.225:46288, size=566
1c 00 00 00 3b 03 00 00 01 14 b9 00 f6 81 05 02 08 00 00 00 00 00 00 00 f6 81 05 02 

>>> message from 128.141.177.225:46288, size=566
1c 00 00 00 3b 03 00 00 01 14 b9 00 f7 81 05 02 08 00 00 00 00 00 00 00 f7 81 05 02 

>>> message from 128.141.177.225:46288, size=566
1c 00 00 00 3b 03 00 00 01 14 b9 00 f8 81 05 02 08 00 00 00 00 00 00 00 f8 81 05 02 

>>> message from 128.141.177.225:46288, size=566
1c 00 00 00 3b 03 00 00 01 14 b9 00 f9 81 05 02 08 00 00 00 00 00 00 00 f9 81 05 02 

>>> message from 128.141.177.225:46288, size=566
1c 00 00 00 3b 03 00 00 01 14 b9 00 fa 81 05 02 08 00 00 00 00 00 00 00 fa 81 05 02 

>>> message from 128.141.177.225:46288, size=566
1c 00 00 00 3b 03 00 00 01 14 b9 00 fb 81 05 02 08 00 00 00 00 00 00 00 fb 81 05 02 

>>> message from 128.141.177.225:46288, size=566
1c 00 00 00 3b 03 00 00 01 14 b9 00 fc 81 05 02 08 00 00 00 00 00 00 00 fc 81 05 02 

>>> message from 128.141.177.225:46288, size=566
1c 00 00 00 3b 03 00 00 01 14 b9 00 fd 81 05 02 08 00 00 00 00 00 00 00 fd 81 05 02 

>>> message from 128.141.177.225:46288, size=566
1c 00 00 00 3b 03 00 00 01 14 b9 00 fe 81 05 02 08 00 00 00 00 00 00 00 fe 81 05 02 

>>> message from 128.141.177.225:46288, size=321
1c 00 00 00 3b 03 00 00 01 14 b9 00 ff 81 05 02 08 00 00 00 00 00 00 00 ff 81 05 02 

>>> message from 128.141.177.225:46288, size=566
1c 00 00 00 3b 03 00 00 01 14 b9 00 00 82 05 02 08 00 00 00 00 00 00 00 00 82 05 02 

>>> message from 128.141.177.225:46288, size=566
1c 00 00 00 3b 03 00 00 01 14 b9 00 01 82 05 02 08 00 00 00 00 00 00 00 01 82 05 02 

>>> message from 128.141.177.225:46288, size=566
1c 00 00 00 3b 03 00 00 01 14 b9 00 02 82 05 02 08 00 00 00 00 00 00 00 02 82 05 02 

>>> message from 128.141.177.225:46288, size=566
1c 00 00 00 3b 03 00 00 01 14 b9 00 03 82 05 02 08 00 00 00 00 00 00 00 03 82 05 02 

>>> message from 128.141.177.225:46288, size=566
1c 00 00 00 3b 03 00 00 01 14 b9 00 04 82 05 02 08 00 00 00 00 00 00 00 04 82 05 02 

>>> message from 128.141.177.225:46288, size=566
1c 00 00 00 3b 03 00 00 01 14 b9 00 05 82 05 02 08 00 00 00 00 00 00 00 05 82 05 02 

>>> message from 128.141.177.225:46288, size=566
1c 00 00 00 3b 03 00 00 01 14 b9 00 06 82 05 02 08 00 00 00 00 00 00 00 06 82 05 02 

>>> message from 128.141.177.225:46288, size=566
1c 00 00 00 3b 03 00 00 01 14 b9 00 07 82 05 02 08 00 00 00 00 00 00 00 07 82 05 02 

>>> message from 128.141.177.225:46288, size=566
1c 00 00 00 3b 03 00 00 01 14 b9 00 08 82 05 02 08 00 00 00 00 00 00 00 08 82 05 02 

>>> message from 128.141.177.225:46288, size=566
1c 00 00 00 3b 03 00 00 01 14 b9 00 09 82 05 02 08 00 00 00 00 00 00 00 09 82 05 02 

>>> message from 128.141.177.225:46288, size=566
1c 00 00 00 3b 03 00 00 01 14 b9 00 0a 82 05 02 08 00 00 00 00 00 00 00 0a 82 05 02 

>>> message from 128.141.177.225:46288, size=566
1c 00 00 00 3b 03 00 00 01 14 b9 00 0b 82 05 02 08 00 00 00 00 00 00 00 0b 82 05 02 

>>> message from 128.141.177.225:46288, size=566
1c 00 00 00 3b 03 00 00 01 14 b9 00 0c 82 05 02 08 00 00 00 00 00 00 00 0c 82 05 02 

>>> message from 128.141.177.225:46288, size=566
1c 00 00 00 3b 03 00 00 01 14 b9 00 0d 82 05 02 08 00 00 00 00 00 00 00 0d 82 05 02 

>>> message from 128.141.177.225:46288, size=566
1c 00 00 00 3b 03 00 00 01 14 b9 00 0e 82 05 02 08 00 00 00 00 00 00 00 0e 82 05 02 

>>> message from 128.141.177.225:46288, size=566
1c 00 00 00 3b 03 00 00 01 14 b9 00 0f 82 05 02 08 00 00 00 00 00 00 00 0f 82 05 02 

>>> message from 128.141.177.225:46288, size=566
1c 00 00 00 3b 03 00 00 01 14 b9 00 10 82 05 02 08 00 00 00 00 00 00 00 10 82 05 02 

>>> message from 128.141.177.225:46288, size=566
1c 00 00 00 3b 03 00 00 01 14 b9 00 11 82 05 02 08 00 00 00 00 00 00 00 11 82 05 02 

>>> message from 128.141.177.225:46288, size=566
1c 00 00 00 3b 03 00 00 01 14 b9 00 12 82 05 02 08 00 00 00 00 00 00 00 12 82 05 02 

>>> message from 128.141.177.225:46288, size=566
1c 00 00 00 3b 03 00 00 01 14 b9 00 13 82 05 02 08 00 00 00 00 00 00 00 13 82 05 02 

>>> message from 128.141.177.225:46288, size=566
1c 00 00 00 3b 03 00 00 01 14 b9 00 14 82 05 02 08 00 00 00 00 00 00 00 14 82 05 02 

>>> message from 128.141.177.225:46288, size=566
1c 00 00 00 3b 03 00 00 01 14 b9 00 15 82 05 02 08 00 00 00 00 00 00 00 15 82 05 02 

>>> message from 128.141.177.225:46288, size=566
1c 00 00 00 3b 03 00 00 01 14 b9 00 16 82 05 02 08 00 00 00 00 00 00 00 16 82 05 02 

>>> message from 128.141.177.225:46288, size=566
1c 00 00 00 3b 03 00 00 01 14 b9 00 17 82 05 02 08 00 00 00 00 00 00 00 17 82 05 02 

>>> message from 128.141.177.225:46288, size=566
1c 00 00 00 3b 03 00 00 01 14 b9 00 18 82 05 02 08 00 00 00 00 00 00 00 18 82 05 02 

>>> message from 128.141.177.225:46288, size=566
1c 00 00 00 3b 03 00 00 01 14 b9 00 19 82 05 02 08 00 00 00 00 00 00 00 19 82 05 02 

>>> message from 128.141.177.225:46288, size=566
1c 00 00 00 3b 03 00 00 01 14 b9 00 1a 82 05 02 08 00 00 00 00 00 00 00 1a 82 05 02 

>>> message from 128.141.177.225:46288, size=566
1c 00 00 00 3b 03 00 00 01 14 b9 00 1b 82 05 02 08 00 00 00 00 00 00 00 1b 82 05 02 

>>> message from 128.141.177.225:46288, size=566
1c 00 00 00 3b 03 00 00 01 14 b9 00 1c 82 05 02 08 00 00 00 00 00 00 00 1c 82 05 02 

>>> message from 128.141.177.225:46288, size=566
1c 00 00 00 3b 03 00 00 01 14 b9 00 1d 82 05 02 08 00 00 00 00 00 00 00 1d 82 05 02 

>>> message from 128.141.177.225:46288, size=566
1c 00 00 00 3b 03 00 00 01 14 b9 00 1e 82 05 02 08 00 00 00 00 00 00 00 1e 82 05 02 

>>> message from 128.141.177.225:46288, size=566
1c 00 00 00 3b 03 00 00 01 14 b9 00 1f 82 05 02 08 00 00 00 00 00 00 00 1f 82 05 02 

>>> message from 128.141.177.225:46288, size=566
1c 00 00 00 3b 03 00 00 01 14 b9 00 20 82 05 02 08 00 00 00 00 00 00 00 20 82 05 02 

>>> message from 128.141.177.225:46288, size=566
1c 00 00 00 3b 03 00 00 01 14 b9 00 21 82 05 02 08 00 00 00 00 00 00 00 21 82 05 02 

>>> message from 128.141.177.225:46288, size=566
1c 00 00 00 3b 03 00 00 01 14 b9 00 22 82 05 02 08 00 00 00 00 00 00 00 22 82 05 02 

>>> message from 128.141.177.225:46288, size=566
1c 00 00 00 3b 03 00 00 01 14 b9 00 23 82 05 02 08 00 00 00 00 00 00 00 23 82 05 02 

>>> message from 128.141.177.225:46288, size=566
1c 00 00 00 3b 03 00 00 01 14 b9 00 24 82 05 02 08 00 00 00 00 00 00 00 24 82 05 02 

>>> message from 128.141.177.225:46288, size=566
1c 00 00 00 3b 03 00 00 01 14 b9 00 25 82 05 02 08 00 00 00 00 00 00 00 25 82 05 02 

>>> message from 128.141.177.225:46288, size=566
1c 00 00 00 3b 03 00 00 01 14 b9 00 26 82 05 02 08 00 00 00 00 00 00 00 26 82 05 02 

>>> message from 128.141.177.225:46288, size=566
1c 00 00 00 3b 03 00 00 01 14 b9 00 27 82 05 02 08 00 00 00 00 00 00 00 27 82 05 02 

>>> message from 128.141.177.225:46288, size=566
1c 00 00 00 3b 03 00 00 01 14 b9 00 28 82 05 02 08 00 00 00 00 00 00 00 28 82 05 02 

>>> message from 128.141.177.225:46288, size=566
1c 00 00 00 3b 03 00 00 01 14 b9 00 29 82 05 02 08 00 00 00 00 00 00 00 29 82 05 02 

>>> message from 128.141.177.225:46288, size=566
1c 00 00 00 3b 03 00 00 01 14 b9 00 2a 82 05 02 08 00 00 00 00 00 00 00 2a 82 05 02 

>>> message from 128.141.177.225:46288, size=566
1c 00 00 00 3b 03 00 00 01 14 b9 00 2b 82 05 02 08 00 00 00 00 00 00 00 2b 82 05 02 

>>> message from 128.141.177.225:46288, size=566
1c 00 00 00 3b 03 00 00 01 14 b9 00 2c 82 05 02 08 00 00 00 00 00 00 00 2c 82 05 02 

>>> message from 128.141.177.225:46288, size=566
1c 00 00 00 3b 03 00 00 01 14 b9 00 2d 82 05 02 08 00 00 00 00 00 00 00 2d 82 05 02 

>>> message from 128.141.177.225:46288, size=566
1c 00 00 00 3b 03 00 00 01 14 b9 00 2e 82 05 02 08 00 00 00 00 00 00 00 2e 82 05 02 

>>> message from 128.141.177.225:46288, size=566
1c 00 00 00 3b 03 00 00 01 14 b9 00 2f 82 05 02 08 00 00 00 00 00 00 00 2f 82 05 02 

>>> message from 128.141.177.225:46288, size=566
1c 00 00 00 3b 03 00 00 01 14 b9 00 30 82 05 02 08 00 00 00 00 00 00 00 30 82 05 02 

>>> message from 128.141.177.225:46288, size=566
1c 00 00 00 3b 03 00 00 01 14 b9 00 31 82 05 02 08 00 00 00 00 00 00 00 31 82 05 02 

>>> message from 128.141.177.225:46288, size=566
1c 00 00 00 3b 03 00 00 01 14 b9 00 32 82 05 02 08 00 00 00 00 00 00 00 32 82 05 02 

>>> message from 128.141.177.225:46288, size=566
1c 00 00 00 3b 03 00 00 01 14 b9 00 33 82 05 02 08 00 00 00 00 00 00 00 33 82 05 02 

>>> message from 128.141.177.225:46288, size=566
1c 00 00 00 3b 03 00 00 01 14 b9 00 34 82 05 02 08 00 00 00 00 00 00 00 34 82 05 02 

>>> message from 128.141.177.225:46288, size=566
1c 00 00 00 3b 03 00 00 01 14 b9 00 35 82 05 02 08 00 00 00 00 00 00 00 35 82 05 02 

>>> message from 128.141.177.225:46288, size=566
1c 00 00 00 3b 03 00 00 01 14 b9 00 36 82 05 02 08 00 00 00 00 00 00 00 36 82 05 02 

>>> message from 128.141.177.225:46288, size=566
1c 00 00 00 3b 03 00 00 01 14 b9 00 37 82 05 02 08 00 00 00 00 00 00 00 37 82 05 02 

>>> message from 128.141.177.225:46288, size=566
1c 00 00 00 3b 03 00 00 01 14 b9 00 38 82 05 02 08 00 00 00 00 00 00 00 38 82 05 02 

>>> message from 128.141.177.225:46288, size=566
1c 00 00 00 3b 03 00 00 01 14 b9 00 39 82 05 02 08 00 00 00 00 00 00 00 39 82 05 02 

>>> message from 128.141.177.225:46288, size=566
1c 00 00 00 3b 03 00 00 01 14 b9 00 3a 82 05 02 08 00 00 00 00 00 00 00 3a 82 05 02 

>>> message from 128.141.177.225:46288, size=566
1c 00 00 00 3b 03 00 00 01 14 b9 00 3b 82 05 02 08 00 00 00 00 00 00 00 3b 82 05 02 

>>> message from 128.141.177.225:46288, size=566
1c 00 00 00 3b 03 00 00 01 14 b9 00 3c 82 05 02 08 00 00 00 00 00 00 00 3c 82 05 02 

>>> message from 128.141.177.225:46288, size=566
1c 00 00 00 3b 03 00 00 01 14 b9 00 3d 82 05 02 08 00 00 00 00 00 00 00 3d 82 05 02 

>>> message from 128.141.177.225:46288, size=566
1c 00 00 00 3b 03 00 00 01 14 b9 00 3e 82 05 02 08 00 00 00 00 00 00 00 3e 82 05 02 

>>> message from 128.141.177.225:46288, size=566
1c 00 00 00 3b 03 00 00 01 14 b9 00 3f 82 05 02 08 00 00 00 00 00 00 00 3f 82 05 02 

>>> message from 128.141.177.225:46288, size=566
1c 00 00 00 3b 03 00 00 01 14 b9 00 40 82 05 02 08 00 00 00 00 00 00 00 40 82 05 02 

>>> message from 128.141.177.225:46288, size=566
1c 00 00 00 3b 03 00 00 01 14 b9 00 41 82 05 02 08 00 00 00 00 00 00 00 41 82 05 02 

>>> message from 128.141.177.225:46288, size=566
1c 00 00 00 3b 03 00 00 01 14 b9 00 42 82 05 02 08 00 00 00 00 00 00 00 42 82 05 02 

>>> message from 128.141.177.225:46288, size=566
1c 00 00 00 3b 03 00 00 01 14 b9 00 43 82 05 02 08 00 00 00 00 00 00 00 43 82 05 02 

>>> message from 128.141.177.225:46288, size=566
1c 00 00 00 3b 03 00 00 01 14 b9 00 44 82 05 02 08 00 00 00 00 00 00 00 44 82 05 02 

>>> message from 128.141.177.225:46288, size=566
1c 00 00 00 3b 03 00 00 01 14 b9 00 45 82 05 02 08 00 00 00 00 00 00 00 45 82 05 02 

>>> message from 128.141.177.225:46288, size=566
1c 00 00 00 3b 03 00 00 01 14 b9 00 46 82 05 02 08 00 00 00 00 00 00 00 46 82 05 02 

>>> message from 128.141.177.225:46288, size=566
1c 00 00 00 3b 03 00 00 01 14 b9 00 47 82 05 02 08 00 00 00 00 00 00 00 47 82 05 02 

>>> message from 128.141.177.225:46288, size=566
1c 00 00 00 3b 03 00 00 01 14 b9 00 48 82 05 02 08 00 00 00 00 00 00 00 48 82 05 02 

>>> message from 128.141.177.225:46288, size=566
1c 00 00 00 3b 03 00 00 01 14 b9 00 49 82 05 02 08 00 00 00 00 00 00 00 49 82 05 02 

>>> message from 128.141.177.225:46288, size=566
1c 00 00 00 3b 03 00 00 01 14 b9 00 4a 82 05 02 08 00 00 00 00 00 00 00 4a 82 05 02 

>>> message from 128.141.177.225:46288, size=566
1c 00 00 00 3b 03 00 00 01 14 b9 00 4b 82 05 02 08 00 00 00 00 00 00 00 4b 82 05 02 

>>> message from 128.141.177.225:46288, size=566
1c 00 00 00 3b 03 00 00 01 14 b9 00 4c 82 05 02 08 00 00 00 00 00 00 00 4c 82 05 02 

>>> message from 128.141.177.225:46288, size=566
1c 00 00 00 3b 03 00 00 01 14 b9 00 4d 82 05 02 08 00 00 00 00 00 00 00 4d 82 05 02 

>>> message from 128.141.177.225:46288, size=566
1c 00 00 00 3b 03 00 00 01 14 b9 00 4e 82 05 02 08 00 00 00 00 00 00 00 4e 82 05 02 

>>> message from 128.141.177.225:46288, size=566
1c 00 00 00 3b 03 00 00 01 14 b9 00 4f 82 05 02 08 00 00 00 00 00 00 00 4f 82 05 02 

>>> message from 128.141.177.225:46288, size=566
1c 00 00 00 3b 03 00 00 01 14 b9 00 50 82 05 02 08 00 00 00 00 00 00 00 50 82 05 02 

>>> message from 128.141.177.225:46288, size=566
1c 00 00 00 3b 03 00 00 01 14 b9 00 51 82 05 02 08 00 00 00 00 00 00 00 51 82 05 02 

>>> message from 128.141.177.225:46288, size=566
1c 00 00 00 3b 03 00 00 01 14 b9 00 52 82 05 02 08 00 00 00 00 00 00 00 52 82 05 02 

>>> message from 128.141.177.225:46288, size=566
1c 00 00 00 3b 03 00 00 01 14 b9 00 53 82 05 02 08 00 00 00 00 00 00 00 53 82 05 02 

>>> message from 128.141.177.225:46288, size=566
1c 00 00 00 3b 03 00 00 01 14 b9 00 54 82 05 02 08 00 00 00 00 00 00 00 54 82 05 02 

>>> message from 128.141.177.225:46288, size=566
1c 00 00 00 3b 03 00 00 01 14 b9 00 55 82 05 02 08 00 00 00 00 00 00 00 55 82 05 02 

>>> message from 128.141.177.225:46288, size=566
1c 00 00 00 3b 03 00 00 01 14 b9 00 56 82 05 02 08 00 00 00 00 00 00 00 56 82 05 02 

>>> message from 128.141.177.225:46288, size=566
1c 00 00 00 3b 03 00 00 01 14 b9 00 57 82 05 02 08 00 00 00 00 00 00 00 57 82 05 02 

>>> message from 128.141.177.225:46288, size=566
1c 00 00 00 3b 03 00 00 01 14 b9 00 58 82 05 02 08 00 00 00 00 00 00 00 58 82 05 02 

>>> message from 128.141.177.225:46288, size=566
1c 00 00 00 3b 03 00 00 01 14 b9 00 59 82 05 02 08 00 00 00 00 00 00 00 59 82 05 02 

>>> message from 128.141.177.225:46288, size=566
1c 00 00 00 3b 03 00 00 01 14 b9 00 5a 82 05 02 08 00 00 00 00 00 00 00 5a 82 05 02 

>>> message from 128.141.177.225:46288, size=566
1c 00 00 00 3b 03 00 00 01 14 b9 00 5b 82 05 02 08 00 00 00 00 00 00 00 5b 82 05 02 

>>> message from 128.141.177.225:46288, size=566
1c 00 00 00 3b 03 00 00 01 14 b9 00 5c 82 05 02 08 00 00 00 00 00 00 00 5c 82 05 02 

>>> message from 128.141.177.225:46288, size=566
1c 00 00 00 3b 03 00 00 01 14 b9 00 5d 82 05 02 08 00 00 00 00 00 00 00 5d 82 05 02 

>>> message from 128.141.177.225:46288, size=566
1c 00 00 00 3b 03 00 00 01 14 b9 00 5e 82 05 02 08 00 00 00 00 00 00 00 5e 82 05 02 

>>> message from 128.141.177.225:46288, size=566
1c 00 00 00 3b 03 00 00 01 14 b9 00 5f 82 05 02 08 00 00 00 00 00 00 00 5f 82 05 02 

>>> message from 128.141.177.225:46288, size=566
1c 00 00 00 3b 03 00 00 01 14 b9 00 60 82 05 02 08 00 00 00 00 00 00 00 60 82 05 02 

>>> message from 128.141.177.225:46288, size=566
1c 00 00 00 3b 03 00 00 01 14 b9 00 61 82 05 02 08 00 00 00 00 00 00 00 61 82 05 02 

>>> message from 128.141.177.225:46288, size=566
1c 00 00 00 3b 03 00 00 01 14 b9 00 62 82 05 02 08 00 00 00 00 00 00 00 62 82 05 02 

>>> message from 128.141.177.225:46288, size=566
1c 00 00 00 3b 03 00 00 01 14 b9 00 63 82 05 02 08 00 00 00 00 00 00 00 63 82 05 02 

>>> message from 128.141.177.225:46288, size=566
1c 00 00 00 3b 03 00 00 01 14 b9 00 64 82 05 02 08 00 00 00 00 00 00 00 64 82 05 02 

>>> message from 128.141.177.225:46288, size=566
1c 00 00 00 3b 03 00 00 01 14 b9 00 65 82 05 02 08 00 00 00 00 00 00 00 65 82 05 02 

>>> message from 128.141.177.225:46288, size=566
1c 00 00 00 3b 03 00 00 01 14 b9 00 66 82 05 02 08 00 00 00 00 00 00 00 66 82 05 02 

>>> message from 128.141.177.225:46288, size=566
1c 00 00 00 3b 03 00 00 01 14 b9 00 67 82 05 02 08 00 00 00 00 00 00 00 67 82 05 02 

>>> message from 128.141.177.225:46288, size=566
1c 00 00 00 3b 03 00 00 01 14 b9 00 68 82 05 02 08 00 00 00 00 00 00 00 68 82 05 02 

>>> message from 128.141.177.225:46288, size=566
1c 00 00 00 3b 03 00 00 01 14 b9 00 69 82 05 02 08 00 00 00 00 00 00 00 69 82 05 02 

>>> message from 128.141.177.225:46288, size=566
1c 00 00 00 3b 03 00 00 01 14 b9 00 6a 82 05 02 08 00 00 00 00 00 00 00 6a 82 05 02 

>>> message from 128.141.177.225:46288, size=566
1c 00 00 00 3b 03 00 00 01 14 b9 00 6b 82 05 02 08 00 00 00 00 00 00 00 6b 82 05 02 

>>> message from 128.141.177.225:46288, size=566
1c 00 00 00 3b 03 00 00 01 14 b9 00 6c 82 05 02 08 00 00 00 00 00 00 00 6c 82 05 02 

>>> message from 128.141.177.225:46288, size=566
1c 00 00 00 3b 03 00 00 01 14 b9 00 6d 82 05 02 08 00 00 00 00 00 00 00 6d 82 05 02 

>>> message from 128.141.177.225:46288, size=566
1c 00 00 00 3b 03 00 00 01 14 b9 00 6e 82 05 02 08 00 00 00 00 00 00 00 6e 82 05 02 

>>> message from 128.141.177.225:46288, size=566
1c 00 00 00 3b 03 00 00 01 14 b9 00 6f 82 05 02 08 00 00 00 00 00 00 00 6f 82 05 02 

>>> message from 128.141.177.225:46288, size=566
1c 00 00 00 3b 03 00 00 01 14 b9 00 70 82 05 02 08 00 00 00 00 00 00 00 70 82 05 02 

>>> message from 128.141.177.225:46288, size=566
1c 00 00 00 3b 03 00 00 01 14 b9 00 71 82 05 02 08 00 00 00 00 00 00 00 71 82 05 02 

>>> message from 128.141.177.225:46288, size=566
1c 00 00 00 3b 03 00 00 01 14 b9 00 72 82 05 02 08 00 00 00 00 00 00 00 72 82 05 02 

>>> message from 128.141.177.225:46288, size=566
1c 00 00 00 3b 03 00 00 01 14 b9 00 73 82 05 02 08 00 00 00 00 00 00 00 73 82 05 02 

>>> message from 128.141.177.225:46288, size=566
1c 00 00 00 3b 03 00 00 01 14 b9 00 74 82 05 02 08 00 00 00 00 00 00 00 74 82 05 02 

>>> message from 128.141.177.225:46288, size=566
1c 00 00 00 3b 03 00 00 01 14 b9 00 75 82 05 02 08 00 00 00 00 00 00 00 75 82 05 02 

>>> message from 128.141.177.225:46288, size=566
1c 00 00 00 3b 03 00 00 01 14 b9 00 76 82 05 02 08 00 00 00 00 00 00 00 76 82 05 02 

>>> message from 128.141.177.225:46288, size=566
1c 00 00 00 3b 03 00 00 01 14 b9 00 77 82 05 02 08 00 00 00 00 00 00 00 77 82 05 02 

>>> message from 128.141.177.225:46288, size=566
1c 00 00 00 3b 03 00 00 01 14 b9 00 78 82 05 02 08 00 00 00 00 00 00 00 78 82 05 02 

>>> message from 128.141.177.225:46288, size=566
1c 00 00 00 3b 03 00 00 01 14 b9 00 79 82 05 02 08 00 00 00 00 00 00 00 79 82 05 02 

>>> message from 128.141.177.225:46288, size=566
1c 00 00 00 3b 03 00 00 01 14 b9 00 7a 82 05 02 08 00 00 00 00 00 00 00 7a 82 05 02 

>>> message from 128.141.177.225:46288, size=566
1c 00 00 00 3b 03 00 00 01 14 b9 00 7b 82 05 02 08 00 00 00 00 00 00 00 7b 82 05 02 

>>> message from 128.141.177.225:46288, size=566
1c 00 00 00 3b 03 00 00 01 14 b9 00 7c 82 05 02 08 00 00 00 00 00 00 00 7c 82 05 02 

>>> message from 128.141.177.225:46288, size=566
1c 00 00 00 3b 03 00 00 01 14 b9 00 7d 82 05 02 08 00 00 00 00 00 00 00 7d 82 05 02 

>>> message from 128.141.177.225:46288, size=566
1c 00 00 00 3b 03 00 00 01 14 b9 00 7e 82 05 02 08 00 00 00 00 00 00 00 7e 82 05 02 

>>> message from 128.141.177.225:46288, size=566
1c 00 00 00 3b 03 00 00 01 14 b9 00 7f 82 05 02 08 00 00 00 00 00 00 00 7f 82 05 02 

>>> message from 128.141.177.225:46288, size=566
1c 00 00 00 3b 03 00 00 01 14 b9 00 80 82 05 02 08 00 00 00 00 00 00 00 80 82 05 02 

>>> message from 128.141.177.225:46288, size=566
1c 00 00 00 3b 03 00 00 01 14 b9 00 81 82 05 02 08 00 00 00 00 00 00 00 81 82 05 02 

>>> message from 128.141.177.225:46288, size=566
1c 00 00 00 3b 03 00 00 01 14 b9 00 82 82 05 02 08 00 00 00 00 00 00 00 82 82 05 02 

>>> message from 128.141.177.225:46288, size=566
1c 00 00 00 3b 03 00 00 01 14 b9 00 83 82 05 02 08 00 00 00 00 00 00 00 83 82 05 02 

>>> message from 128.141.177.225:46288, size=566
1c 00 00 00 3b 03 00 00 01 14 b9 00 84 82 05 02 08 00 00 00 00 00 00 00 84 82 05 02 

>>> message from 128.141.177.225:46288, size=566
1c 00 00 00 3b 03 00 00 01 14 b9 00 85 82 05 02 08 00 00 00 00 00 00 00 85 82 05 02 

>>> message from 128.141.177.225:46288, size=566
1c 00 00 00 3b 03 00 00 01 14 b9 00 86 82 05 02 08 00 00 00 00 00 00 00 86 82 05 02 

>>> message from 128.141.177.225:46288, size=566
1c 00 00 00 3b 03 00 00 01 14 b9 00 87 82 05 02 08 00 00 00 00 00 00 00 87 82 05 02 

>>> message from 128.141.177.225:46288, size=566
1c 00 00 00 3b 03 00 00 01 14 b9 00 88 82 05 02 08 00 00 00 00 00 00 00 88 82 05 02 

>>> message from 128.141.177.225:46288, size=566
1c 00 00 00 3b 03 00 00 01 14 b9 00 89 82 05 02 08 00 00 00 00 00 00 00 89 82 05 02 

>>> message from 128.141.177.225:46288, size=566
1c 00 00 00 3b 03 00 00 01 14 b9 00 8a 82 05 02 08 00 00 00 00 00 00 00 8a 82 05 02 

>>> message from 128.141.177.225:46288, size=566
1c 00 00 00 3b 03 00 00 01 14 b9 00 8b 82 05 02 08 00 00 00 00 00 00 00 8b 82 05 02 

>>> message from 128.141.177.225:46288, size=566
1c 00 00 00 3b 03 00 00 01 14 b9 00 8c 82 05 02 08 00 00 00 00 00 00 00 8c 82 05 02 

>>> message from 128.141.177.225:46288, size=566
1c 00 00 00 3b 03 00 00 01 14 b9 00 8d 82 05 02 08 00 00 00 00 00 00 00 8d 82 05 02 

>>> message from 128.141.177.225:46288, size=566
1c 00 00 00 3b 03 00 00 01 14 b9 00 8e 82 05 02 08 00 00 00 00 00 00 00 8e 82 05 02 

>>> message from 128.141.177.225:46288, size=566
1c 00 00 00 3b 03 00 00 01 14 b9 00 8f 82 05 02 08 00 00 00 00 00 00 00 8f 82 05 02 

>>> message from 128.141.177.225:46288, size=566
1c 00 00 00 3b 03 00 00 01 14 b9 00 90 82 05 02 08 00 00 00 00 00 00 00 90 82 05 02 

>>> message from 128.141.177.225:46288, size=566
1c 00 00 00 3b 03 00 00 01 14 b9 00 91 82 05 02 08 00 00 00 00 00 00 00 91 82 05 02 

>>> message from 128.141.177.225:46288, size=566
1c 00 00 00 3b 03 00 00 01 14 b9 00 92 82 05 02 08 00 00 00 00 00 00 00 92 82 05 02 

>>> message from 128.141.177.225:46288, size=566
1c 00 00 00 3b 03 00 00 01 14 b9 00 93 82 05 02 08 00 00 00 00 00 00 00 93 82 05 02 

>>> message from 128.141.177.225:46288, size=566
1c 00 00 00 3b 03 00 00 01 14 b9 00 94 82 05 02 08 00 00 00 00 00 00 00 94 82 05 02 

>>> message from 128.141.177.225:46288, size=566
1c 00 00 00 3b 03 00 00 01 14 b9 00 95 82 05 02 08 00 00 00 00 00 00 00 95 82 05 02 

>>> message from 128.141.177.225:46288, size=566
1c 00 00 00 3b 03 00 00 01 14 b9 00 96 82 05 02 08 00 00 00 00 00 00 00 96 82 05 02 

>>> message from 128.141.177.225:46288, size=566
1c 00 00 00 3b 03 00 00 01 14 b9 00 97 82 05 02 08 00 00 00 00 00 00 00 97 82 05 02 

>>> message from 128.141.177.225:46288, size=566
1c 00 00 00 3b 03 00 00 01 14 b9 00 98 82 05 02 08 00 00 00 00 00 00 00 98 82 05 02 

>>> message from 128.141.177.225:46288, size=566
1c 00 00 00 3b 03 00 00 01 14 b9 00 99 82 05 02 08 00 00 00 00 00 00 00 99 82 05 02 

>>> message from 128.141.177.225:46288, size=566
1c 00 00 00 3b 03 00 00 01 14 b9 00 9a 82 05 02 08 00 00 00 00 00 00 00 9a 82 05 02 

>>> message from 128.141.177.225:46288, size=566
1c 00 00 00 3b 03 00 00 01 14 b9 00 9b 82 05 02 08 00 00 00 00 00 00 00 9b 82 05 02 

>>> message from 128.141.177.225:46288, size=566
1c 00 00 00 3b 03 00 00 01 14 b9 00 9c 82 05 02 08 00 00 00 00 00 00 00 9c 82 05 02 

>>> message from 128.141.177.225:46288, size=566
1c 00 00 00 3b 03 00 00 01 14 b9 00 9d 82 05 02 08 00 00 00 00 00 00 00 9d 82 05 02 

>>> message from 128.141.177.225:46288, size=566
1c 00 00 00 3b 03 00 00 01 14 b9 00 9e 82 05 02 08 00 00 00 00 00 00 00 9e 82 05 02 

>>> message from 128.141.177.225:46288, size=566
1c 00 00 00 3b 03 00 00 01 14 b9 00 9f 82 05 02 08 00 00 00 00 00 00 00 9f 82 05 02 

>>> message from 128.141.177.225:46288, size=566
1c 00 00 00 3b 03 00 00 01 14 b9 00 a0 82 05 02 08 00 00 00 00 00 00 00 a0 82 05 02 

>>> message from 128.141.177.225:46288, size=566
1c 00 00 00 3b 03 00 00 01 14 b9 00 a1 82 05 02 08 00 00 00 00 00 00 00 a1 82 05 02 

>>> message from 128.141.177.225:46288, size=566
1c 00 00 00 3b 03 00 00 01 14 b9 00 a2 82 05 02 08 00 00 00 00 00 00 00 a2 82 05 02 

>>> message from 128.141.177.225:46288, size=566
1c 00 00 00 3b 03 00 00 01 14 b9 00 a3 82 05 02 08 00 00 00 00 00 00 00 a3 82 05 02 

>>> message from 128.141.177.225:46288, size=566
1c 00 00 00 3b 03 00 00 01 14 b9 00 a4 82 05 02 08 00 00 00 00 00 00 00 a4 82 05 02 

>>> message from 128.141.177.225:46288, size=566
1c 00 00 00 3b 03 00 00 01 14 b9 00 a5 82 05 02 08 00 00 00 00 00 00 00 a5 82 05 02 

>>> message from 128.141.177.225:46288, size=566
1c 00 00 00 3b 03 00 00 01 14 b9 00 a6 82 05 02 08 00 00 00 00 00 00 00 a6 82 05 02 

>>> message from 128.141.177.225:46288, size=566
1c 00 00 00 3b 03 00 00 01 14 b9 00 a7 82 05 02 08 00 00 00 00 00 00 00 a7 82 05 02 

>>> message from 128.141.177.225:46288, size=566
1c 00 00 00 3b 03 00 00 01 14 b9 00 a8 82 05 02 08 00 00 00 00 00 00 00 a8 82 05 02 

>>> message from 128.141.177.225:46288, size=566
1c 00 00 00 3b 03 00 00 01 14 b9 00 a9 82 05 02 08 00 00 00 00 00 00 00 a9 82 05 02 

>>> message from 128.141.177.225:46288, size=566
1c 00 00 00 3b 03 00 00 01 14 b9 00 aa 82 05 02 08 00 00 00 00 00 00 00 aa 82 05 02 

>>> message from 128.141.177.225:46288, size=566
1c 00 00 00 3b 03 00 00 01 14 b9 00 ab 82 05 02 08 00 00 00 00 00 00 00 ab 82 05 02 

>>> message from 128.141.177.225:46288, size=566
1c 00 00 00 3b 03 00 00 01 14 b9 00 ac 82 05 02 08 00 00 00 00 00 00 00 ac 82 05 02 

>>> message from 128.141.177.225:46288, size=566
1c 00 00 00 3b 03 00 00 01 14 b9 00 ad 82 05 02 08 00 00 00 00 00 00 00 ad 82 05 02 

>>> message from 128.141.177.225:46288, size=566
1c 00 00 00 3b 03 00 00 01 14 b9 00 ae 82 05 02 08 00 00 00 00 00 00 00 ae 82 05 02 

>>> message from 128.141.177.225:46288, size=566
1c 00 00 00 3b 03 00 00 01 14 b9 00 af 82 05 02 08 00 00 00 00 00 00 00 af 82 05 02 

>>> message from 128.141.177.225:46288, size=566
1c 00 00 00 3b 03 00 00 01 14 b9 00 b0 82 05 02 08 00 00 00 00 00 00 00 b0 82 05 02 

>>> message from 128.141.177.225:46288, size=566
1c 00 00 00 3b 03 00 00 01 14 b9 00 b1 82 05 02 08 00 00 00 00 00 00 00 b1 82 05 02 

>>> message from 128.141.177.225:46288, size=566
1c 00 00 00 3b 03 00 00 01 14 b9 00 b2 82 05 02 08 00 00 00 00 00 00 00 b2 82 05 02 

>>> message from 128.141.177.225:46288, size=566
1c 00 00 00 3b 03 00 00 01 14 b9 00 b3 82 05 02 08 00 00 00 00 00 00 00 b3 82 05 02 

>>> message from 128.141.177.225:46288, size=566
1c 00 00 00 3b 03 00 00 01 14 b9 00 b4 82 05 02 08 00 00 00 00 00 00 00 b4 82 05 02 

>>> message from 128.141.177.225:46288, size=566
1c 00 00 00 3b 03 00 00 01 14 b9 00 b5 82 05 02 08 00 00 00 00 00 00 00 b5 82 05 02 

>>> message from 128.141.177.225:46288, size=566
1c 00 00 00 3b 03 00 00 01 14 b9 00 b6 82 05 02 08 00 00 00 00 00 00 00 b6 82 05 02 

>>> message from 128.141.177.225:46288, size=566
1c 00 00 00 3b 03 00 00 01 14 b9 00 b7 82 05 02 08 00 00 00 00 00 00 00 b7 82 05 02 

>>> message from 128.141.177.225:46288, size=566
1c 00 00 00 3b 03 00 00 01 14 b9 00 b8 82 05 02 08 00 00 00 00 00 00 00 b8 82 05 02 

>>> message from 128.141.177.225:46288, size=566
1c 00 00 00 3b 03 00 00 01 14 b9 00 b9 82 05 02 08 00 00 00 00 00 00 00 b9 82 05 02 

>>> message from 128.141.177.225:46288, size=566
1c 00 00 00 3b 03 00 00 01 14 b9 00 ba 82 05 02 08 00 00 00 00 00 00 00 ba 82 05 02 

>>> message from 128.141.177.225:46288, size=566
1c 00 00 00 3b 03 00 00 01 14 b9 00 bb 82 05 02 08 00 00 00 00 00 00 00 bb 82 05 02 

>>> message from 128.141.177.225:46288, size=566
1c 00 00 00 3b 03 00 00 01 14 b9 00 bc 82 05 02 08 00 00 00 00 00 00 00 bc 82 05 02 

>>> message from 128.141.177.225:46288, size=566
1c 00 00 00 3b 03 00 00 01 14 b9 00 bd 82 05 02 08 00 00 00 00 00 00 00 bd 82 05 02 

>>> message from 128.141.177.225:46288, size=566
1c 00 00 00 3b 03 00 00 01 14 b9 00 be 82 05 02 08 00 00 00 00 00 00 00 be 82 05 02 

>>> message from 128.141.177.225:46288, size=566
1c 00 00 00 3b 03 00 00 01 14 b9 00 bf 82 05 02 08 00 00 00 00 00 00 00 bf 82 05 02 

>>> message from 128.141.177.225:46288, size=566
1c 00 00 00 3b 03 00 00 01 14 b9 00 c0 82 05 02 08 00 00 00 00 00 00 00 c0 82 05 02 

>>> message from 128.141.177.225:46288, size=566
1c 00 00 00 3b 03 00 00 01 14 b9 00 c1 82 05 02 08 00 00 00 00 00 00 00 c1 82 05 02 

>>> message from 128.141.177.225:46288, size=566
1c 00 00 00 3b 03 00 00 01 14 b9 00 c2 82 05 02 08 00 00 00 00 00 00 00 c2 82 05 02 

>>> message from 128.141.177.225:46288, size=566
1c 00 00 00 3b 03 00 00 01 14 b9 00 c3 82 05 02 08 00 00 00 00 00 00 00 c3 82 05 02 

>>> message from 128.141.177.225:46288, size=566
1c 00 00 00 3b 03 00 00 01 14 b9 00 c4 82 05 02 08 00 00 00 00 00 00 00 c4 82 05 02 

